{
    "actions": [
        {
            "buttons": [
                {
                    "events": {
                        "chapterId": 73,
                        "immidiatly": true,
                        "type": "onTap"
                    },
                    "id": 1,
                    "name": "Искать кота"
                },
                {
                    "events": {
                        "chapterId": 77,
                        "immidiatly": true,
                        "type": "onTap"
                    },
                    "id": 2,
                    "name": "Звонить 112"
                },
                {
                    "events": {
                        "chapterId": 74,
                        "immidiatly": true,
                        "type": "onTap"
                    },
                    "id": 3,
                    "name": "Забить на кота"
                }
            ],
            "chapter": 76,
            "header": "Что сделать?",
            "id": 20,
            "startTime": 63.29,
            "timeout": 16.65,
            "type": "buttons"
        },
        {
            "buttons": [
                {
                    "events": {
                        "chapterId": 77,
                        "immidiatly": true,
                        "type": "onTap"
                    },
                    "id": 4,
                    "name": "Звонить 112"
                },
                {
                    "events": {
                        "chapterId": 74,
                        "immidiatly": true,
                        "type": "onTap"
                    },
                    "id": 5,
                    "name": "Забить на кота"
                }
            ],
            "chapter": 73,
            "header": "Что сделать?",
            "id": 21,
            "startTime": 34.25,
            "timeout": 21.54,
            "type": "buttons"
        },
        {
            "buttons": [
                {
                    "events": {
                        "chapterId": 74,
                        "immidiatly": true,
                        "type": "onTap"
                    },
                    "id": 6,
                    "name": "Забить на кота"
                },
                {
                    "events": {
                        "chapterId": 73,
                        "immidiatly": true,
                        "type": "onTap"
                    },
                    "id": 7,
                    "name": "Искать кота"
                }
            ],
            "chapter": 77,
            "header": "Что сделать?",
            "id": 22,
            "startTime": 60.3,
            "timeout": 22.21,
            "type": "buttons"
        },
        {
            "buttons": [
                {
                    "events": {
                        "chapterId": 75,
                        "immidiatly": true,
                        "type": "onTap"
                    },
                    "id": 8,
                    "name": "Купить картошки"
                },
                {
                    "events": {
                        "chapterId": 78,
                        "immidiatly": true,
                        "type": "onTap"
                    },
                    "id": 9,
                    "name": "Сделать зарядку"
                },
                {
                    "events": {
                        "chapterId": 79,
                        "immidiatly": true,
                        "type": "onTap"
                    },
                    "id": 10,
                    "name": "Сидеть за компом"
                },
                {
                    "events": {
                        "chapterId": 85,
                        "immidiatly": true,
                        "type": "onTap"
                    },
                    "id": 11,
                    "name": "Покормить кота"
                },
                {
                    "events": {
                        "chapterId": 83,
                        "immidiatly": true,
                        "type": "onTap"
                    },
                    "id": 12,
                    "name": "Устроить вечеринку"
                }
            ],
            "chapter": 74,
            "header": "Что сделать?",
            "id": 23,
            "startTime": 31.39,
            "timeout": 22.58,
            "type": "buttons"
        },
        {
            "buttons": [
                {
                    "events": {
                        "chapterId": 75,
                        "immidiatly": true,
                        "type": "onTap"
                    },
                    "id": 13,
                    "name": "Купить картошки"
                },
                {
                    "events": {
                        "chapterId": 78,
                        "immidiatly": true,
                        "type": "onTap"
                    },
                    "id": 14,
                    "name": "Сделать зарядку"
                },
                {
                    "events": {
                        "chapterId": 79,
                        "immidiatly": true,
                        "type": "onTap"
                    },
                    "id": 15,
                    "name": "Сидеть за компом"
                },
                {
                    "events": {
                        "chapterId": 85,
                        "immidiatly": true,
                        "type": "onTap"
                    },
                    "id": 16,
                    "name": "Покормить кота"
                }
            ],
            "chapter": 83,
            "header": "Что сделать?",
            "id": 24,
            "startTime": 20.57,
            "timeout": 11.65,
            "type": "buttons"
        },
        {
            "buttons": [
                {
                    "events": {
                        "chapterId": 86,
                        "immidiatly": true,
                        "type": "onTap"
                    },
                    "id": 17,
                    "name": "В магазин"
                },
                {
                    "events": {
                        "chapterId": 72,
                        "immidiatly": true,
                        "type": "onTap"
                    },
                    "id": 18,
                    "name": "На рынок"
                }
            ],
            "chapter": 75,
            "header": "Куда пойти?",
            "id": 25,
            "startTime": 47.37,
            "timeout": 21.63,
            "type": "buttons"
        },
        {
            "buttons": [
                {
                    "events": {
                        "chapterId": 87,
                        "immidiatly": true,
                        "type": "onTap"
                    },
                    "id": 19,
                    "name": "Купить картошки"
                },
                {
                    "events": {
                        "chapterId": 79,
                        "immidiatly": true,
                        "type": "onTap"
                    },
                    "id": 20,
                    "name": "Сидеть за компом"
                },
                {
                    "events": {
                        "chapterId": 85,
                        "immidiatly": true,
                        "type": "onTap"
                    },
                    "id": 21,
                    "name": "Покормить кота"
                },
                {
                    "events": {
                        "chapterId": 83,
                        "immidiatly": true,
                        "type": "onTap"
                    },
                    "id": 22,
                    "name": "Устроить вечеринку"
                }
            ],
            "chapter": 78,
            "header": "Что сделать?",
            "id": 26,
            "startTime": 63.36,
            "timeout": 19.62,
            "type": "buttons"
        },
        {
            "buttons": [
                {
                    "events": {
                        "chapterId": 72,
                        "immidiatly": true,
                        "type": "onTap"
                    },
                    "id": 23,
                    "name": "Пойти на рынок"
                },
                {
                    "events": {
                        "chapterId": 78,
                        "immidiatly": true,
                        "type": "onTap"
                    },
                    "id": 24,
                    "name": "Сделать зарядку"
                },
                {
                    "events": {
                        "chapterId": 79,
                        "immidiatly": true,
                        "type": "onTap"
                    },
                    "id": 25,
                    "name": "Сидеть за компом"
                },
                {
                    "events": {
                        "chapterId": 83,
                        "immidiatly": true,
                        "type": "onTap"
                    },
                    "id": 26,
                    "name": "Устроить вечеринку"
                }
            ],
            "chapter": 85,
            "header": "Что сделать?",
            "id": 27,
            "startTime": 29.2,
            "timeout": 15.32,
            "type": "buttons"
        },
        {
            "buttons": [
                {
                    "events": {
                        "chapterId": 75,
                        "immidiatly": true,
                        "type": "onTap"
                    },
                    "id": 27,
                    "name": "Купить картошки"
                },
                {
                    "events": {
                        "chapterId": 78,
                        "immidiatly": true,
                        "type": "onTap"
                    },
                    "id": 28,
                    "name": "Сделать зарядку"
                },
                {
                    "events": {
                        "chapterId": 85,
                        "immidiatly": true,
                        "type": "onTap"
                    },
                    "id": 29,
                    "name": "Покормить кота"
                },
                {
                    "events": {
                        "chapterId": 83,
                        "immidiatly": true,
                        "type": "onTap"
                    },
                    "id": 30,
                    "name": "Устроить вечеринку"
                }
            ],
            "chapter": 81,
            "header": "Что сделать?",
            "id": 28,
            "startTime": 20.56,
            "timeout": 8.48,
            "type": "buttons"
        },
        {
            "buttons": [
                {
                    "events": {
                        "chapterId": 75,
                        "immidiatly": true,
                        "type": "onTap"
                    },
                    "id": 31,
                    "name": "Купить картошки"
                },
                {
                    "events": {
                        "chapterId": 78,
                        "immidiatly": true,
                        "type": "onTap"
                    },
                    "id": 32,
                    "name": "Сделать зарядку"
                },
                {
                    "events": {
                        "chapterId": 85,
                        "immidiatly": true,
                        "type": "onTap"
                    },
                    "id": 33,
                    "name": "Покормить кота"
                },
                {
                    "events": {
                        "chapterId": 83,
                        "immidiatly": true,
                        "type": "onTap"
                    },
                    "id": 34,
                    "name": "Устроить вечеринку"
                }
            ],
            "chapter": 88,
            "header": "Что сделать?",
            "id": 29,
            "startTime": 14.05,
            "timeout": 20.01,
            "type": "buttons"
        },
        {
            "buttons": [
                {
                    "events": {
                        "chapterId": 75,
                        "immidiatly": true,
                        "type": "onTap"
                    },
                    "id": 35,
                    "name": "Купить картошки"
                },
                {
                    "events": {
                        "chapterId": 78,
                        "immidiatly": true,
                        "type": "onTap"
                    },
                    "id": 36,
                    "name": "Сделать зарядку"
                },
                {
                    "events": {
                        "chapterId": 85,
                        "immidiatly": true,
                        "type": "onTap"
                    },
                    "id": 37,
                    "name": "Покормить кота"
                },
                {
                    "events": {
                        "chapterId": 83,
                        "immidiatly": true,
                        "type": "onTap"
                    },
                    "id": 38,
                    "name": "Устроить вечеринку"
                }
            ],
            "chapter": 84,
            "header": "Что сделать?",
            "id": 30,
            "startTime": 14.48,
            "timeout": 18.11,
            "type": "buttons"
        },
        {
            "buttons": [
                {
                    "events": {
                        "chapterId": 84,
                        "immidiatly": true,
                        "type": "onTap"
                    },
                    "id": 39,
                    "name": "Злобный коммент"
                },
                {
                    "events": {
                        "chapterId": 81,
                        "immidiatly": true,
                        "type": "onTap"
                    },
                    "id": 40,
                    "name": "Возмущаться на экран"
                },
                {
                    "events": {
                        "chapterId": 88,
                        "immidiatly": true,
                        "type": "onTap"
                    },
                    "id": 41,
                    "name": "Лайкнуть"
                },
                {
                    "events": {
                        "chapterId": 78,
                        "immidiatly": true,
                        "type": "onTap"
                    },
                    "id": 42,
                    "name": "Сделать зарядку"
                }
            ],
            "chapter": 79,
            "header": "Что сделать?",
            "id": 31,
            "startTime": 22.03,
            "timeout": 16.27,
            "type": "buttons"
        },
        {
            "id": 32,
            "chapter": 86,
            "type": "join",
            "joinWith": 72
        },
        {
            "buttons": [
                {
                    "events": {
                        "chapterId": 89,
                        "immidiatly": true,
                        "type": "onTap"
                    },
                    "id": 45,
                    "name": "Пятновыводитель"
                },
                {
                    "events": {
                        "chapterId": 82,
                        "immidiatly": true,
                        "type": "onTap"
                    },
                    "id": 46,
                    "name": "Мицеллярная вода"
                }
            ],
            "chapter": 80,
            "header": "Что попробовать?",
            "id": 33,
            "startTime": 20.82,
            "timeout": 19.17,
            "type": "buttons"
        },
        {
            "buttons": [
                {
                    "events": {
                        "chapterId": 80,
                        "immidiatly": true,
                        "type": "onTap"
                    },
                    "id": 47,
                    "name": "Пятновыводитель"
                },
                {
                    "events": {
                        "chapterId": 82,
                        "immidiatly": true,
                        "type": "onTap"
                    },
                    "id": 48,
                    "name": "Мицеллярная вода"
                }
            ],
            "chapter": 72,
            "header": "Что использовать?",
            "id": 34,
            "startTime": 73.37,
            "timeout": 75.23,
            "type": "buttons"
        },
        {
            "buttons": [
                {
                    "events": {
                        "chapterId": 80,
                        "immidiatly": true,
                        "type": "onTap"
                    },
                    "id": 49,
                    "name": "Пятновыводитель"
                },
                {
                    "events": {
                        "chapterId": 82,
                        "immidiatly": true,
                        "type": "onTap"
                    },
                    "id": 50,
                    "name": "Мицеллярная вода"
                }
            ],
            "chapter": 71,
            "header": "Что использовать?",
            "id": 35,
            "startTime": 110.77,
            "timeout": 19.34,
            "type": "buttons"
        },
        {
            "buttons": [
                {
                    "events": {
                        "chapterId": 80,
                        "immidiatly": true,
                        "type": "onTap"
                    },
                    "id": 51,
                    "name": "Пятновыводитель"
                },
                {
                    "events": {
                        "chapterId": 82,
                        "immidiatly": true,
                        "type": "onTap"
                    },
                    "id": 52,
                    "name": "Мицеллярная вода"
                }
            ],
            "chapter": 89,
            "header": "Что использовать?",
            "id": 36,
            "startTime": 25.55,
            "timeout": 14.65,
            "type": "buttons"
        },
        {
            "buttons": [
                {
                    "events": {
                        "chapterId": 86,
                        "immidiatly": true,
                        "type": "onTap"
                    },
                    "id": 53,
                    "name": "В магазин"
                },
                {
                    "events": {
                        "chapterId": 71,
                        "immidiatly": true,
                        "type": "onTap"
                    },
                    "id": 54,
                    "name": "На рынок"
                }
            ],
            "chapter": 87,
            "header": "Куда пойти?",
            "id": 37,
            "startTime": 46.21,
            "timeout": 23.02,
            "type": "buttons"
        }
    ],
    "chapters": [
        {
            "id": 76,
            "videos": [
                {
                    "resolution": "240p",
                    "size": 6706482,
                    "url": "https://asazin-cache.cdnvideo.ru/asazin/interactive/film.interactive.cat.search/240p/33F88926-C32A-4B79-B5E6-0189F81804DE_240p.mp4"
                },
                {
                    "resolution": "360p",
                    "size": 10865539,
                    "url": "https://asazin-cache.cdnvideo.ru/asazin/interactive/film.interactive.cat.search/360p/33F88926-C32A-4B79-B5E6-0189F81804DE_360p.mp4"
                },
                {
                    "resolution": "480p",
                    "size": 15435038,
                    "url": "https://asazin-cache.cdnvideo.ru/asazin/interactive/film.interactive.cat.search/480p/33F88926-C32A-4B79-B5E6-0189F81804DE_480p.mp4"
                },
                {
                    "resolution": "720p",
                    "size": 26574143,
                    "url": "https://asazin-cache.cdnvideo.ru/asazin/interactive/film.interactive.cat.search/720p/33F88926-C32A-4B79-B5E6-0189F81804DE_720p.mp4"
                },
                {
                    "resolution": "1080p",
                    "size": 50156933,
                    "url": "https://asazin-cache.cdnvideo.ru/asazin/interactive/film.interactive.cat.search/1080p/33F88926-C32A-4B79-B5E6-0189F81804DE_1080p.mp4"
                }
            ],
            "playlist": "https://asazin-cache.cdnvideo.ru/asazin/test/cat_search/76.m3u8"
        },
        {
            "id": 77,
            "videos": [
                {
                    "resolution": "240p",
                    "size": 7587213,
                    "url": "https://asazin-cache.cdnvideo.ru/asazin/interactive/film.interactive.cat.search/240p/56B1A6AA-DFA3-4C54-A0A5-247995DA2089_240p.mp4"
                },
                {
                    "resolution": "360p",
                    "size": 12334124,
                    "url": "https://asazin-cache.cdnvideo.ru/asazin/interactive/film.interactive.cat.search/360p/56B1A6AA-DFA3-4C54-A0A5-247995DA2089_360p.mp4"
                },
                {
                    "resolution": "480p",
                    "size": 17632992,
                    "url": "https://asazin-cache.cdnvideo.ru/asazin/interactive/film.interactive.cat.search/480p/56B1A6AA-DFA3-4C54-A0A5-247995DA2089_480p.mp4"
                },
                {
                    "resolution": "720p",
                    "size": 30210496,
                    "url": "https://asazin-cache.cdnvideo.ru/asazin/interactive/film.interactive.cat.search/720p/56B1A6AA-DFA3-4C54-A0A5-247995DA2089_720p.mp4"
                },
                {
                    "resolution": "1080p",
                    "size": 55937066,
                    "url": "https://asazin-cache.cdnvideo.ru/asazin/interactive/film.interactive.cat.search/1080p/56B1A6AA-DFA3-4C54-A0A5-247995DA2089_1080p.mp4"
                }
            ],
            "playlist": "https://asazin-cache.cdnvideo.ru/asazin/test/cat_search/77.m3u8"
        },
        {
            "id": 74,
            "videos": [
                {
                    "resolution": "240p",
                    "size": 6034242,
                    "url": "https://asazin-cache.cdnvideo.ru/asazin/interactive/film.interactive.cat.search/240p/C0D6B326-A58D-45CF-9FAA-48DEC539738D_240p.mp4"
                },
                {
                    "resolution": "360p",
                    "size": 10665279,
                    "url": "https://asazin-cache.cdnvideo.ru/asazin/interactive/film.interactive.cat.search/360p/C0D6B326-A58D-45CF-9FAA-48DEC539738D_360p.mp4"
                },
                {
                    "resolution": "480p",
                    "size": 17007072,
                    "url": "https://asazin-cache.cdnvideo.ru/asazin/interactive/film.interactive.cat.search/480p/C0D6B326-A58D-45CF-9FAA-48DEC539738D_480p.mp4"
                },
                {
                    "resolution": "720p",
                    "size": 34285631,
                    "url": "https://asazin-cache.cdnvideo.ru/asazin/interactive/film.interactive.cat.search/720p/C0D6B326-A58D-45CF-9FAA-48DEC539738D_720p.mp4"
                },
                {
                    "resolution": "1080p",
                    "size": 67419874,
                    "url": "https://asazin-cache.cdnvideo.ru/asazin/interactive/film.interactive.cat.search/1080p/C0D6B326-A58D-45CF-9FAA-48DEC539738D_1080p.mp4"
                }
            ],
            "playlist": "https://asazin-cache.cdnvideo.ru/asazin/test/cat_search/74.m3u8"
        },
        {
            "id": 73,
            "videos": [
                {
                    "resolution": "240p",
                    "size": 5469619,
                    "url": "https://asazin-cache.cdnvideo.ru/asazin/interactive/film.interactive.cat.search/240p/1B3D0092-A4E8-4181-A8DF-E330C0A87CA3_240p.mp4"
                },
                {
                    "resolution": "360p",
                    "size": 8789371,
                    "url": "https://asazin-cache.cdnvideo.ru/asazin/interactive/film.interactive.cat.search/360p/1B3D0092-A4E8-4181-A8DF-E330C0A87CA3_360p.mp4"
                },
                {
                    "resolution": "480p",
                    "size": 12434615,
                    "url": "https://asazin-cache.cdnvideo.ru/asazin/interactive/film.interactive.cat.search/480p/1B3D0092-A4E8-4181-A8DF-E330C0A87CA3_480p.mp4"
                },
                {
                    "resolution": "720p",
                    "size": 21076909,
                    "url": "https://asazin-cache.cdnvideo.ru/asazin/interactive/film.interactive.cat.search/720p/1B3D0092-A4E8-4181-A8DF-E330C0A87CA3_720p.mp4"
                },
                {
                    "resolution": "1080p",
                    "size": 38495725,
                    "url": "https://asazin-cache.cdnvideo.ru/asazin/interactive/film.interactive.cat.search/1080p/1B3D0092-A4E8-4181-A8DF-E330C0A87CA3_1080p.mp4"
                }
            ],
            "playlist": "https://asazin-cache.cdnvideo.ru/asazin/test/cat_search/73.m3u8"
        },
        {
            "id": 75,
            "videos": [
                {
                    "resolution": "240p",
                    "size": 8214594,
                    "url": "https://asazin-cache.cdnvideo.ru/asazin/interactive/film.interactive.cat.search/240p/69C1E147-C423-47B3-B4A4-5583A12C7EC1_240p.mp4"
                },
                {
                    "resolution": "360p",
                    "size": 13798182,
                    "url": "https://asazin-cache.cdnvideo.ru/asazin/interactive/film.interactive.cat.search/360p/69C1E147-C423-47B3-B4A4-5583A12C7EC1_360p.mp4"
                },
                {
                    "resolution": "480p",
                    "size": 20069653,
                    "url": "https://asazin-cache.cdnvideo.ru/asazin/interactive/film.interactive.cat.search/480p/69C1E147-C423-47B3-B4A4-5583A12C7EC1_480p.mp4"
                },
                {
                    "resolution": "720p",
                    "size": 34378714,
                    "url": "https://asazin-cache.cdnvideo.ru/asazin/interactive/film.interactive.cat.search/720p/69C1E147-C423-47B3-B4A4-5583A12C7EC1_720p.mp4"
                },
                {
                    "resolution": "1080p",
                    "size": 61670068,
                    "url": "https://asazin-cache.cdnvideo.ru/asazin/interactive/film.interactive.cat.search/1080p/69C1E147-C423-47B3-B4A4-5583A12C7EC1_1080p.mp4"
                }
            ],
            "playlist": "https://asazin-cache.cdnvideo.ru/asazin/test/cat_search/75.m3u8"
        },
        {
            "id": 78,
            "videos": [
                {
                    "resolution": "240p",
                    "size": 9712784,
                    "url": "https://asazin-cache.cdnvideo.ru/asazin/interactive/film.interactive.cat.search/240p/B353FF06-7FB5-43F9-9BF6-F41E3C21C0BC_240p.mp4"
                },
                {
                    "resolution": "360p",
                    "size": 16751270,
                    "url": "https://asazin-cache.cdnvideo.ru/asazin/interactive/film.interactive.cat.search/360p/B353FF06-7FB5-43F9-9BF6-F41E3C21C0BC_360p.mp4"
                },
                {
                    "resolution": "480p",
                    "size": 25388604,
                    "url": "https://asazin-cache.cdnvideo.ru/asazin/interactive/film.interactive.cat.search/480p/B353FF06-7FB5-43F9-9BF6-F41E3C21C0BC_480p.mp4"
                },
                {
                    "resolution": "720p",
                    "size": 47124976,
                    "url": "https://asazin-cache.cdnvideo.ru/asazin/interactive/film.interactive.cat.search/720p/B353FF06-7FB5-43F9-9BF6-F41E3C21C0BC_720p.mp4"
                },
                {
                    "resolution": "1080p",
                    "size": 89081651,
                    "url": "https://asazin-cache.cdnvideo.ru/asazin/interactive/film.interactive.cat.search/1080p/B353FF06-7FB5-43F9-9BF6-F41E3C21C0BC_1080p.mp4"
                }
            ],
            "playlist": "https://asazin-cache.cdnvideo.ru/asazin/test/cat_search/78.m3u8"
        },
        {
            "id": 79,
            "videos": [
                {
                    "resolution": "240p",
                    "size": 4228070,
                    "url": "https://asazin-cache.cdnvideo.ru/asazin/interactive/film.interactive.cat.search/240p/F1BE5B4B-56EC-44AD-9D67-C711C1A65D98_240p.mp4"
                },
                {
                    "resolution": "360p",
                    "size": 7416575,
                    "url": "https://asazin-cache.cdnvideo.ru/asazin/interactive/film.interactive.cat.search/360p/F1BE5B4B-56EC-44AD-9D67-C711C1A65D98_360p.mp4"
                },
                {
                    "resolution": "480p",
                    "size": 11201331,
                    "url": "https://asazin-cache.cdnvideo.ru/asazin/interactive/film.interactive.cat.search/480p/F1BE5B4B-56EC-44AD-9D67-C711C1A65D98_480p.mp4"
                },
                {
                    "resolution": "720p",
                    "size": 19973233,
                    "url": "https://asazin-cache.cdnvideo.ru/asazin/interactive/film.interactive.cat.search/720p/F1BE5B4B-56EC-44AD-9D67-C711C1A65D98_720p.mp4"
                },
                {
                    "resolution": "1080p",
                    "size": 36638284,
                    "url": "https://asazin-cache.cdnvideo.ru/asazin/interactive/film.interactive.cat.search/1080p/F1BE5B4B-56EC-44AD-9D67-C711C1A65D98_1080p.mp4"
                }
            ],
            "playlist": "https://asazin-cache.cdnvideo.ru/asazin/test/cat_search/79.m3u8"
        },
        {
            "id": 85,
            "videos": [
                {
                    "resolution": "240p",
                    "size": 4253778,
                    "url": "https://asazin-cache.cdnvideo.ru/asazin/interactive/film.interactive.cat.search/240p/9D4F1EB5-30C6-4FCA-AF46-EF9E86E5FAE4_240p.mp4"
                },
                {
                    "resolution": "360p",
                    "size": 7079578,
                    "url": "https://asazin-cache.cdnvideo.ru/asazin/interactive/film.interactive.cat.search/360p/9D4F1EB5-30C6-4FCA-AF46-EF9E86E5FAE4_360p.mp4"
                },
                {
                    "resolution": "480p",
                    "size": 10636178,
                    "url": "https://asazin-cache.cdnvideo.ru/asazin/interactive/film.interactive.cat.search/480p/9D4F1EB5-30C6-4FCA-AF46-EF9E86E5FAE4_480p.mp4"
                },
                {
                    "resolution": "720p",
                    "size": 20001450,
                    "url": "https://asazin-cache.cdnvideo.ru/asazin/interactive/film.interactive.cat.search/720p/9D4F1EB5-30C6-4FCA-AF46-EF9E86E5FAE4_720p.mp4"
                },
                {
                    "resolution": "1080p",
                    "size": 38606554,
                    "url": "https://asazin-cache.cdnvideo.ru/asazin/interactive/film.interactive.cat.search/1080p/9D4F1EB5-30C6-4FCA-AF46-EF9E86E5FAE4_1080p.mp4"
                }
            ],
            "playlist": "https://asazin-cache.cdnvideo.ru/asazin/test/cat_search/85.m3u8"
        },
        {
            "id": 83,
            "videos": [
                {
                    "resolution": "240p",
                    "size": 3296474,
                    "url": "https://asazin-cache.cdnvideo.ru/asazin/interactive/film.interactive.cat.search/240p/0281F702-863C-48A9-8A18-F226E2D4E68D_240p.mp4"
                },
                {
                    "resolution": "360p",
                    "size": 5834760,
                    "url": "https://asazin-cache.cdnvideo.ru/asazin/interactive/film.interactive.cat.search/360p/0281F702-863C-48A9-8A18-F226E2D4E68D_360p.mp4"
                },
                {
                    "resolution": "480p",
                    "size": 9466660,
                    "url": "https://asazin-cache.cdnvideo.ru/asazin/interactive/film.interactive.cat.search/480p/0281F702-863C-48A9-8A18-F226E2D4E68D_480p.mp4"
                },
                {
                    "resolution": "720p",
                    "size": 19836665,
                    "url": "https://asazin-cache.cdnvideo.ru/asazin/interactive/film.interactive.cat.search/720p/0281F702-863C-48A9-8A18-F226E2D4E68D_720p.mp4"
                },
                {
                    "resolution": "1080p",
                    "size": 40562934,
                    "url": "https://asazin-cache.cdnvideo.ru/asazin/interactive/film.interactive.cat.search/1080p/0281F702-863C-48A9-8A18-F226E2D4E68D_1080p.mp4"
                }
            ],
            "playlist": "https://asazin-cache.cdnvideo.ru/asazin/test/cat_search/83.m3u8"
        },
        {
            "id": 86,
            "videos": [
                {
                    "resolution": "240p",
                    "size": 7185680,
                    "url": "https://asazin-cache.cdnvideo.ru/asazin/interactive/film.interactive.cat.search/240p/334F8EF4-CC4E-4936-9605-646D99164C97_240p.mp4"
                },
                {
                    "resolution": "360p",
                    "size": 12087539,
                    "url": "https://asazin-cache.cdnvideo.ru/asazin/interactive/film.interactive.cat.search/360p/334F8EF4-CC4E-4936-9605-646D99164C97_360p.mp4"
                },
                {
                    "resolution": "480p",
                    "size": 17494116,
                    "url": "https://asazin-cache.cdnvideo.ru/asazin/interactive/film.interactive.cat.search/480p/334F8EF4-CC4E-4936-9605-646D99164C97_480p.mp4"
                },
                {
                    "resolution": "720p",
                    "size": 29308376,
                    "url": "https://asazin-cache.cdnvideo.ru/asazin/interactive/film.interactive.cat.search/720p/334F8EF4-CC4E-4936-9605-646D99164C97_720p.mp4"
                },
                {
                    "resolution": "1080p",
                    "size": 49597923,
                    "url": "https://asazin-cache.cdnvideo.ru/asazin/interactive/film.interactive.cat.search/1080p/334F8EF4-CC4E-4936-9605-646D99164C97_1080p.mp4"
                }
            ],
            "playlist": "https://asazin-cache.cdnvideo.ru/asazin/test/cat_search/86.m3u8"
        },
        {
            "id": 72,
            "videos": [
                {
                    "resolution": "240p",
                    "size": 21105675,
                    "url": "https://asazin-cache.cdnvideo.ru/asazin/interactive/film.interactive.cat.search/240p/440C4581-B314-4880-A1DB-A402542C764F_240p.mp4"
                },
                {
                    "resolution": "360p",
                    "size": 35816712,
                    "url": "https://asazin-cache.cdnvideo.ru/asazin/interactive/film.interactive.cat.search/360p/440C4581-B314-4880-A1DB-A402542C764F_360p.mp4"
                },
                {
                    "resolution": "480p",
                    "size": 51778761,
                    "url": "https://asazin-cache.cdnvideo.ru/asazin/interactive/film.interactive.cat.search/480p/440C4581-B314-4880-A1DB-A402542C764F_480p.mp4"
                },
                {
                    "resolution": "720p",
                    "size": 87693247,
                    "url": "https://asazin-cache.cdnvideo.ru/asazin/interactive/film.interactive.cat.search/720p/440C4581-B314-4880-A1DB-A402542C764F_720p.mp4"
                },
                {
                    "resolution": "1080p",
                    "size": 151343609,
                    "url": "https://asazin-cache.cdnvideo.ru/asazin/interactive/film.interactive.cat.search/1080p/440C4581-B314-4880-A1DB-A402542C764F_1080p.mp4"
                }
            ],
            "playlist": "https://asazin-cache.cdnvideo.ru/asazin/test/cat_search/72.m3u8"
        },
        {
            "id": 87,
            "videos": [
                {
                    "resolution": "240p",
                    "size": 8214594,
                    "url": "https://asazin-cache.cdnvideo.ru/asazin/interactive/film.interactive.cat.search/240p/CB72E302-D320-4C84-92E0-B76319EC9A48_240p.mp4"
                },
                {
                    "resolution": "360p",
                    "size": 13798182,
                    "url": "https://asazin-cache.cdnvideo.ru/asazin/interactive/film.interactive.cat.search/360p/CB72E302-D320-4C84-92E0-B76319EC9A48_360p.mp4"
                },
                {
                    "resolution": "480p",
                    "size": 20069653,
                    "url": "https://asazin-cache.cdnvideo.ru/asazin/interactive/film.interactive.cat.search/480p/CB72E302-D320-4C84-92E0-B76319EC9A48_480p.mp4"
                },
                {
                    "resolution": "720p",
                    "size": 34378714,
                    "url": "https://asazin-cache.cdnvideo.ru/asazin/interactive/film.interactive.cat.search/720p/CB72E302-D320-4C84-92E0-B76319EC9A48_720p.mp4"
                },
                {
                    "resolution": "1080p",
                    "size": 61670068,
                    "url": "https://asazin-cache.cdnvideo.ru/asazin/interactive/film.interactive.cat.search/1080p/CB72E302-D320-4C84-92E0-B76319EC9A48_1080p.mp4"
                }
            ],
            "playlist": "https://asazin-cache.cdnvideo.ru/asazin/test/cat_search/87.m3u8"
        },
        {
            "id": 84,
            "videos": [
                {
                    "resolution": "240p",
                    "size": 3404007,
                    "url": "https://asazin-cache.cdnvideo.ru/asazin/interactive/film.interactive.cat.search/240p/A0B34491-85AC-4D23-87DF-F23FA621F9B5_240p.mp4"
                },
                {
                    "resolution": "360p",
                    "size": 5978685,
                    "url": "https://asazin-cache.cdnvideo.ru/asazin/interactive/film.interactive.cat.search/360p/A0B34491-85AC-4D23-87DF-F23FA621F9B5_360p.mp4"
                },
                {
                    "resolution": "480p",
                    "size": 9559388,
                    "url": "https://asazin-cache.cdnvideo.ru/asazin/interactive/film.interactive.cat.search/480p/A0B34491-85AC-4D23-87DF-F23FA621F9B5_480p.mp4"
                },
                {
                    "resolution": "720p",
                    "size": 19815737,
                    "url": "https://asazin-cache.cdnvideo.ru/asazin/interactive/film.interactive.cat.search/720p/A0B34491-85AC-4D23-87DF-F23FA621F9B5_720p.mp4"
                },
                {
                    "resolution": "1080p",
                    "size": 40533758,
                    "url": "https://asazin-cache.cdnvideo.ru/asazin/interactive/film.interactive.cat.search/1080p/A0B34491-85AC-4D23-87DF-F23FA621F9B5_1080p.mp4"
                }
            ],
            "playlist": "https://asazin-cache.cdnvideo.ru/asazin/test/cat_search/84.m3u8"
        },
        {
            "id": 81,
            "videos": [
                {
                    "resolution": "240p",
                    "size": 2760520,
                    "url": "https://asazin-cache.cdnvideo.ru/asazin/interactive/film.interactive.cat.search/240p/D5396597-A7CC-42E1-B66E-D75B366A4E27_240p.mp4"
                },
                {
                    "resolution": "360p",
                    "size": 4911356,
                    "url": "https://asazin-cache.cdnvideo.ru/asazin/interactive/film.interactive.cat.search/360p/D5396597-A7CC-42E1-B66E-D75B366A4E27_360p.mp4"
                },
                {
                    "resolution": "480p",
                    "size": 8073963,
                    "url": "https://asazin-cache.cdnvideo.ru/asazin/interactive/film.interactive.cat.search/480p/D5396597-A7CC-42E1-B66E-D75B366A4E27_480p.mp4"
                },
                {
                    "resolution": "720p",
                    "size": 17340649,
                    "url": "https://asazin-cache.cdnvideo.ru/asazin/interactive/film.interactive.cat.search/720p/D5396597-A7CC-42E1-B66E-D75B366A4E27_720p.mp4"
                },
                {
                    "resolution": "1080p",
                    "size": 36028692,
                    "url": "https://asazin-cache.cdnvideo.ru/asazin/interactive/film.interactive.cat.search/1080p/D5396597-A7CC-42E1-B66E-D75B366A4E27_1080p.mp4"
                }
            ],
            "playlist": "https://asazin-cache.cdnvideo.ru/asazin/test/cat_search/81.m3u8"
        },
        {
            "id": 88,
            "videos": [
                {
                    "resolution": "240p",
                    "size": 3306662,
                    "url": "https://asazin-cache.cdnvideo.ru/asazin/interactive/film.interactive.cat.search/240p/703C3732-DBCF-4113-AD24-02A74612125B_240p.mp4"
                },
                {
                    "resolution": "360p",
                    "size": 5777295,
                    "url": "https://asazin-cache.cdnvideo.ru/asazin/interactive/film.interactive.cat.search/360p/703C3732-DBCF-4113-AD24-02A74612125B_360p.mp4"
                },
                {
                    "resolution": "480p",
                    "size": 9179832,
                    "url": "https://asazin-cache.cdnvideo.ru/asazin/interactive/film.interactive.cat.search/480p/703C3732-DBCF-4113-AD24-02A74612125B_480p.mp4"
                },
                {
                    "resolution": "720p",
                    "size": 18774331,
                    "url": "https://asazin-cache.cdnvideo.ru/asazin/interactive/film.interactive.cat.search/720p/703C3732-DBCF-4113-AD24-02A74612125B_720p.mp4"
                },
                {
                    "resolution": "1080p",
                    "size": 37908116,
                    "url": "https://asazin-cache.cdnvideo.ru/asazin/interactive/film.interactive.cat.search/1080p/703C3732-DBCF-4113-AD24-02A74612125B_1080p.mp4"
                }
            ],
            "playlist": "https://asazin-cache.cdnvideo.ru/asazin/test/cat_search/88.m3u8"
        },
        {
            "id": 89,
            "videos": [
                {
                    "resolution": "240p",
                    "size": 4034198,
                    "url": "https://asazin-cache.cdnvideo.ru/asazin/interactive/film.interactive.cat.search/240p/7DF1AD42-97A8-451C-9184-4421DABE43A5_240p.mp4"
                },
                {
                    "resolution": "360p",
                    "size": 6643538,
                    "url": "https://asazin-cache.cdnvideo.ru/asazin/interactive/film.interactive.cat.search/360p/7DF1AD42-97A8-451C-9184-4421DABE43A5_360p.mp4"
                },
                {
                    "resolution": "480p",
                    "size": 9526706,
                    "url": "https://asazin-cache.cdnvideo.ru/asazin/interactive/film.interactive.cat.search/480p/7DF1AD42-97A8-451C-9184-4421DABE43A5_480p.mp4"
                },
                {
                    "resolution": "720p",
                    "size": 16306547,
                    "url": "https://asazin-cache.cdnvideo.ru/asazin/interactive/film.interactive.cat.search/720p/7DF1AD42-97A8-451C-9184-4421DABE43A5_720p.mp4"
                },
                {
                    "resolution": "1080p",
                    "size": 29662963,
                    "url": "https://asazin-cache.cdnvideo.ru/asazin/interactive/film.interactive.cat.search/1080p/7DF1AD42-97A8-451C-9184-4421DABE43A5_1080p.mp4"
                }
            ],
            "playlist": "https://asazin-cache.cdnvideo.ru/asazin/test/cat_search/89.m3u8"
        },
        {
            "id": 80,
            "videos": [
                {
                    "resolution": "240p",
                    "size": 4034198,
                    "url": "https://asazin-cache.cdnvideo.ru/asazin/interactive/film.interactive.cat.search/240p/EF36DE75-BFE9-4E6D-BBC5-B9E6BA2D9FAC_240p.mp4"
                },
                {
                    "resolution": "360p",
                    "size": 6643538,
                    "url": "https://asazin-cache.cdnvideo.ru/asazin/interactive/film.interactive.cat.search/360p/EF36DE75-BFE9-4E6D-BBC5-B9E6BA2D9FAC_360p.mp4"
                },
                {
                    "resolution": "480p",
                    "size": 9526706,
                    "url": "https://asazin-cache.cdnvideo.ru/asazin/interactive/film.interactive.cat.search/480p/EF36DE75-BFE9-4E6D-BBC5-B9E6BA2D9FAC_480p.mp4"
                },
                {
                    "resolution": "720p",
                    "size": 16306547,
                    "url": "https://asazin-cache.cdnvideo.ru/asazin/interactive/film.interactive.cat.search/720p/EF36DE75-BFE9-4E6D-BBC5-B9E6BA2D9FAC_720p.mp4"
                },
                {
                    "resolution": "1080p",
                    "size": 29662963,
                    "url": "https://asazin-cache.cdnvideo.ru/asazin/interactive/film.interactive.cat.search/1080p/EF36DE75-BFE9-4E6D-BBC5-B9E6BA2D9FAC_1080p.mp4"
                }
            ],
            "playlist": "https://asazin-cache.cdnvideo.ru/asazin/test/cat_search/80.m3u8"
        },
        {
            "id": 82,
            "videos": [
                {
                    "resolution": "240p",
                    "size": 3176207,
                    "url": "https://asazin-cache.cdnvideo.ru/asazin/interactive/film.interactive.cat.search/240p/19B470E7-4588-4267-B556-43897A8C0181_240p.mp4"
                },
                {
                    "resolution": "360p",
                    "size": 5167526,
                    "url": "https://asazin-cache.cdnvideo.ru/asazin/interactive/film.interactive.cat.search/360p/19B470E7-4588-4267-B556-43897A8C0181_360p.mp4"
                },
                {
                    "resolution": "480p",
                    "size": 7340490,
                    "url": "https://asazin-cache.cdnvideo.ru/asazin/interactive/film.interactive.cat.search/480p/19B470E7-4588-4267-B556-43897A8C0181_480p.mp4"
                },
                {
                    "resolution": "720p",
                    "size": 12681702,
                    "url": "https://asazin-cache.cdnvideo.ru/asazin/interactive/film.interactive.cat.search/720p/19B470E7-4588-4267-B556-43897A8C0181_720p.mp4"
                },
                {
                    "resolution": "1080p",
                    "size": 23875672,
                    "url": "https://asazin-cache.cdnvideo.ru/asazin/interactive/film.interactive.cat.search/1080p/19B470E7-4588-4267-B556-43897A8C0181_1080p.mp4"
                }
            ],
            "playlist": "https://asazin-cache.cdnvideo.ru/asazin/test/cat_search/82.m3u8"
        },
        {
            "id": 71,
            "videos": [
                {
                    "resolution": "240p",
                    "size": 19196801,
                    "url": "https://asazin-cache.cdnvideo.ru/asazin/interactive/film.interactive.cat.search/240p/F4F4C1DE-4430-422C-AEDA-DA59685F5238_240p.mp4"
                },
                {
                    "resolution": "360p",
                    "size": 32789224,
                    "url": "https://asazin-cache.cdnvideo.ru/asazin/interactive/film.interactive.cat.search/360p/F4F4C1DE-4430-422C-AEDA-DA59685F5238_360p.mp4"
                },
                {
                    "resolution": "480p",
                    "size": 47534024,
                    "url": "https://asazin-cache.cdnvideo.ru/asazin/interactive/film.interactive.cat.search/480p/F4F4C1DE-4430-422C-AEDA-DA59685F5238_480p.mp4"
                },
                {
                    "resolution": "720p",
                    "size": 80733275,
                    "url": "https://asazin-cache.cdnvideo.ru/asazin/interactive/film.interactive.cat.search/720p/F4F4C1DE-4430-422C-AEDA-DA59685F5238_720p.mp4"
                },
                {
                    "resolution": "1080p",
                    "size": 138081932,
                    "url": "https://asazin-cache.cdnvideo.ru/asazin/interactive/film.interactive.cat.search/1080p/F4F4C1DE-4430-422C-AEDA-DA59685F5238_1080p.mp4"
                }
            ],
            "playlist": "https://asazin-cache.cdnvideo.ru/asazin/test/cat_search/71.m3u8"
        }
    ],
    "initialChapterId": 76,
    "manifestVersion": "2.0.0"
}
