{
  "game": {
    "name": "prank",
    "version": "1.4",
    "showStatistics": false,
    "friendlyGame": true,
    "showPoints": false,
    "chapters": [
      {
        "id": "intro",
        "deadNode": "",
        "next": [
          "call_blank_video"
        ]
      },
      {
        "id": "call_blank_video",
        "deadNode": "",
        "next": [
          "answer",
          "decline"
        ]
      },
      {
        "id": "decline",
        "deadNode": "",
        "next": ["intro"]
      },
      {
        "id": "answer",
        "deadNode": "",
        "next": [
          "nedozhd",
          "scandal"
        ]
      },
      {
        "id": "nedozhd",
        "deadNode": "",
        "next": ["intro"]
      },
      {
        "id": "scandal",
        "deadNode": "",
        "next": ["intro"]
      }
    ],
    "events": [
      {
        "chapter": "call_blank_video",
        "time": 0.0,
        "type": "IncomingCall",
        "isTutorial": false,
        "isEnabledTimerInTutorial": false,
        "isInstant": true,
        "isDead": false,
        "id": 3,
        "penalty": 0,
        "timeout": 1000,
        "data-mobile": {
          "img": "call",
          "name": "Шут",
          "incomingCall": "incomingCall",
          "accept": "accept",
          "decline": "decline",
          "canSkip": true,
          "acceptChapterIndex": 0,
          "declineChapterIndex": 1,
          "nextChapterIndexOnFailure": 1
        }
      },
      {
        "chapter": "answer",
        "time": 10.0,
        "type": "Kick",
        "isTutorial": false,
        "isInstant": true,
        "isHideTimer": true,
        "isEnabledTimerInTutorial": false,
        "isDead": false,
        "id": 1,
        "penalty": 0,
        "timeout": 1000.0,
        "isStartChainEvent": false,
        "isChainEvent": false,
        "isEndChainEvent": false,
        "data-mobile": {
          "deleteOnlyAfterInteraction": true,
          "objects": [
            {
              "nextChapterIndex": 1,
              "type": "hand",
              "timeShow": 0.0,
              "timeHide": 0.0,
              "invisible": true,
              "positions": [
                {
                  "t": 0.0,
                  "x": -0.9,
                  "y": 0.0
                }
              ],
              "radius": 0.2
            },
            {
              "nextChapterIndex": 0,
              "type": "hand",
              "timeShow": 0.0,
              "timeHide": 0.0,
              "invisible": true,
              "positions": [
                {
                  "t": 0.0,
                  "x": -0.5,
                  "y": 0.0
                }
              ],
              "radius": 0.2
            }
          ],
          "threshold": 1,
          "question": "q3"
        }
      }
    ],
    "save-points": [],
    "characters": [],
    "objects": [],
    "avatars": [],
    "assets": [
      "/assets/call.jpg"
    ],
    "achievements": [],
    "localizations": []
  }
}
