{
  "game": {
    "name": "pursuit",
    "version": "1.4",
    "showStatistics": false,
    "friendlyGame": false,
    "showPoints": true,
    "resizeAspect": false,
    "chapters": [
      {
        "id": "1",
        "deadNode": "",
        "next": [
          "1_2"
        ]
      },
      {
        "id": "1_2",
        "deadNode": "1_1",
        "next": ["2", "4"]
      },
      {
        "id": "2",
        "deadNode": "",
        "next": ["3"]
      },
      {
        "id": "3",
        "deadNode": "2_1",
        "next": ["3_2"]
      },
      {
        "id": "3_2",
        "deadNode": "3_1",
        "next": ["4_2"]
      },
      {
        "id": "4",
        "deadNode": "4_1",
        "next": ["4_2"]
      },
      {
        "id": "4_2",
        "deadNode": "4_1",
        "next": ["6", "5"]
      },
      {
        "id": "5",
        "deadNode": "",
        "next": ["5_2"]
      },
      {
        "id": "5_2",
        "deadNode": "5_1",
        "next": ["6"]
      },
      {
        "id": "6",
        "deadNode": "",
        "next": ["6_2"]
      },
      {
        "id": "6_2",
        "deadNode": "6_1",
        "next": []
      }
    ],
    "events": [
      {
        "chapter": "1",
        "time": 15.00,
        "type": "FastTapping",
        "isTutorial": false,
        "isEnabledTimerInTutorial": false,
        "isDead": false,
        "id": 1,
        "penalty": 100,
        "timeout": 3.0,
        "data-mobile": {
          "tapCount": 13
        }
      },

      {
        "chapter": "1_2",
        "time": 5.00,
        "type": "Choice",
        "isTutorial": false,
        "isEnabledTimerInTutorial": false,
        "isDead": false,
        "id": 2,
        "penalty": 0,
        "timeout": 4.0,
        "data-mobile": {
          "question": "",
          "variants": [
            "Драться",
            "Не драться"
          ]
        }
      },

      {
        "chapter": "2",
        "time": 5.0,
        "type": "Gesture",
        "isTutorial": false,
        "isEnabledTimerInTutorial": false,
        "isDead": false,
        "id": 3,
        "penalty": 100,
        "timeout": 4.5,
        "data-mobile": {
        }
      },

      {
        "chapter": "3",
        "time": 4.5,
        "type": "Gesture",
        "isTutorial": false,
        "isEnabledTimerInTutorial": false,
        "isDead": false,
        "id": 3,
        "penalty": 100,
        "timeout": 4.5,
        "data-mobile": {
        }
      },

      {
        "chapter": "3_2",
        "time": 14.5,
        "type": "TapAndHold",
        "isTutorial": false,
        "isEnabledTimerInTutorial": false,
        "isDead": false,
        "id": 4,
        "penalty": 100,
        "timeout": 2.0,
        "data-mobile": {
          "holdTime": 1.0
        }
      },

      {
        "chapter": "4",
        "time": 11.5,
        "type": "TapAndHold",
        "isTutorial": false,
        "isEnabledTimerInTutorial": false,
        "isDead": false,
        "id": 4,
        "penalty": 100,
        "timeout": 3.0,
        "data-mobile": {
          "holdTime": 2.0
        }
      },

      {
        "chapter": "4_2",
        "time": 60.00,
        "type": "Choice",
        "isTutorial": false,
        "isEnabledTimerInTutorial": false,
        "isDead": false,
        "id": 5,
        "penalty": 0,
        "timeout": 4.0,
        "data-mobile": {
          "question": "",
          "variants": [
            "Бежать",
            "Прятаться"
          ]
        }
      },

      {
        "chapter": "5",
        "time": 22.0,
        "type": "TapAndHold",
        "isTutorial": false,
        "isEnabledTimerInTutorial": false,
        "isDead": false,
        "id": 6,
        "penalty": 100,
        "timeout": 3.0,
        "data-mobile": {
          "holdTime": 1.7
        }
      },

      {
        "chapter": "6",
        "time": 31.0,
        "type": "Gesture",
        "isTutorial": false,
        "isEnabledTimerInTutorial": false,
        "isDead": false,
        "id": 7,
        "penalty": 100,
        "timeout": 3.5,
        "data-mobile": {
        }
      }
    ],
    "save-points": [],
    "characters": [
      {
        "char": "gamer",
        "emotion": "death"
      }
    ],
    "objects": [],
    "avatars": [
      {
        "chapter": "1",
        "time": 0.0,
        "char": "gamer",
        "emotion": "death"
      },
      {
        "chapter": "1_1",
        "time": 0.0,
        "char": "gamer",
        "emotion": "death"
      },
      {
        "chapter": "1_2",
        "time": 0.0,
        "char": "gamer",
        "emotion": "death"
      },
      {
        "chapter": "2",
        "time": 0.0,
        "char": "gamer",
        "emotion": "death"
      },
      {
        "chapter": "2_1",
        "time": 0.0,
        "char": "gamer",
        "emotion": "death"
      },
      {
        "chapter": "3",
        "time": 0.0,
        "char": "gamer",
        "emotion": "death"
      },
      {
        "chapter": "3_1",
        "time": 0.0,
        "char": "gamer",
        "emotion": "death"
      },
      {
        "chapter": "3_2",
        "time": 0.0,
        "char": "gamer",
        "emotion": "death"
      },
      {
        "chapter": "4",
        "time": 0.0,
        "char": "gamer",
        "emotion": "death"
      },
      {
        "chapter": "4_1",
        "time": 0.0,
        "char": "gamer",
        "emotion": "death"
      },
      {
        "chapter": "4_2",
        "time": 0.0,
        "char": "gamer",
        "emotion": "death"
      },
      {
        "chapter": "5",
        "time": 0.0,
        "char": "gamer",
        "emotion": "death"
      },
      {
        "chapter": "5_1",
        "time": 0.0,
        "char": "gamer",
        "emotion": "death"
      },
      {
        "chapter": "5_2",
        "time": 0.0,
        "char": "gamer",
        "emotion": "death"
      },
      {
        "chapter": "6",
        "time": 0.0,
        "char": "gamer",
        "emotion": "death"
      },
      {
        "chapter": "6_1",
        "time": 0.0,
        "char": "gamer",
        "emotion": "death"
      },
      {
        "chapter": "6_2",
        "time": 0.0,
        "char": "gamer",
        "emotion": "death"
      }
    ],
    "assets": [],
    "achievements": []
  }
}
