[
  {
    "key": "loading",
    "value": "Загрузка"
  },
  {
    "key": "loading-text-1",
    "value": "Смотри фильм"
  },
  {
    "key": "loading-text-2",
    "value": "Управляй фильмом"
  },
  {
    "key": "loading-text-3",
    "value": "Ты - главный герой"
  },
  {
    "key": "loading-text-4",
    "value": "Ты - режиссер"
  },
  {
    "key": "loading-text-5",
    "value": "От тебя зависит, чем это закончится"
  },
  {
    "key": "loading-text-red",
    "value": "Первый в мире интерактивный фильм от первого лица"
  },
  {
    "key": "loading-go",
    "value": "СТАРТ"
  },
  {
    "key": "menu-bg-interactive-video",
    "value": "ИНТЕРАКТИВНОЕ ВИДЕО"
  },
  {
    "key": "menu-header-attention",
    "value": "Внимание!"
  },
  {
    "key": "menu-header-limited",
    "value": "Возрастное ораничение"
  },
  {
    "key": "menu-header-18+",
    "value": "18+"
  },
  {
    "key": "menu-description-18+",
    "value": "Вы должны быть старше 18 лет или совершеннолетним по законодательству\\n\nвашей страны. Данный интерактивный фильм содержит сцены насилия\\n и нецензурную лексику. Наслаждайтесь!"
  },
  {
    "key": "menu-btn-exit",
    "value": "ВЫЙТИ"
  },
  {
    "key": "menu-btn-enter",
    "value": "ВОЙТИ"
  },
  {
    "key": "menu-social-header",
    "value": "Войти через социальную сеть"
  },
  {
    "key": "menu-facebook",
    "value": "facebook.com"
  },
  {
    "key": "menu-vk",
    "value": "vk.com"
  },
  {
    "key": "menu-google-plus",
    "value": "plus.google.com"
  },
  {
    "key": "menu-or-label",
    "value": "или"
  },
  {
    "key": "menu-btn-sign-in",
    "value": "Логин"
  },
  {
    "key": "menu-btn-sign-up",
    "value": "Регистрация"
  },
  {
    "key": "menu-btn-back",
    "value": "Назад"
  },
  {
    "key": "menu-btn-forgot-password",
    "value": "Забыли пароль?"
  },
  {
    "key": "menu-forgot-password-btn-send",
    "value": "Отправить"
  },
  {
    "key": "menu-sign-up-header",
    "value": "Впервые в Разоблаченные?"
  },
  {
    "key": "menu-btn-create-account",
    "value": "Создать аккаунт"
  },
  {
    "key": "menu-email-label",
    "value": "E-mail"
  },
  {
    "key": "menu-error-label",
    "value": "Ошибка"
  },
  {
    "key": "menu-password-label",
    "value": "Пароль"
  },
  {
    "key": "menu-btn-start-game",
    "value": "НАЧАТЬ ИГРУ"
  },
  {
    "key": "menu-btn-continue-game",
    "value": "ПРОДОЛЖИТЬ ИГРУ"
  },
  {
    "key": "menu-project-name-header",
    "value": "Разоблаченные"
  },
  {
    "key": "language-short-label-es",
    "value": "ES"
  },
  {
    "key": "language-short-label-ch",
    "value": "CH"
  },
  {
    "key": "menu-main-label",
    "value": "Как далеко ты зайдешь, чтобы спасти брата от неминуемой гибели?\\n\nНа что ты готов, чтобы спасти себя?"
  },
  {
    "key": "menu-views-label",
    "value": "просмотров"
  },
  {
    "key": "menu-caption-title",
    "value": "Создатели"
  },
  {
    "key": "menu-btn-get-on-google-play",
    "value": "Скачать на\\n\n<size=\"16\">Google play</size>"
  },
  {
    "key": "menu-btn-get-on-appstore",
    "value": "Скачать на\\n\n<size=\"16\">App Store</size>"
  },
  {
    "key": "menu-label-created-by",
    "value": "создано"
  },
  {
    "key": "menu-label-captions",
    "value": "авторы"
  },
  {
    "key": "menu-label-powered-by",
    "value": "Работает на"
  },
  {
    "key": "menu-label-organization-name",
    "value": "Interactive Platform"
  },
  {
    "key": "menu-label-interactive-video",
    "value": "Interactive Video"
  },
  {
    "key": "menu-captions-close-label",
    "value": "чтобы закрыть, кликните по экрану"
  },
  {
    "key": "menu-captions-header",
    "value": "СОЗДАТЕЛИ"
  },
  {
    "key": "menu-card-header",
    "value": "Данные карты"
  },
  {
    "key": "menu-card-number-label",
    "value": "Номер карты"
  },
  {
    "key": "menu-card-number-mask",
    "value": "0000-0000-0000-0000"
  },
  {
    "key": "menu-card-number-error",
    "value": "Неправильный номер"
  },
  {
    "key": "menu-card-date-error",
    "value": "Такой даты не существует"
  },
  {
    "key": "menu-card-date-label",
    "value": "Срок действия"
  },
  {
    "key": "menu-card-date-month-mask",
    "value": "MM"
  },
  {
    "key": "menu-card-date-year-mask",
    "value": "YY"
  },
  {
    "key": "menu-card-cvv-label",
    "value": "CVV/CVC"
  },
  {
    "key": "menu-card-cvv-error",
    "value": "Неправильный код"
  },
  {
    "key": "menu-card-cvv-descr",
    "value": "трехзначный код\\n\nна обратной стороне\\n\nкарты"
  },
  {
    "key": "menu-card-holder-label",
    "value": "Фамилия и имя на карте"
  },
  {
    "key": "menu-card-holder-mask",
    "value": "IVANOV IVAN"
  },
  {
    "key": "menu-card-holder-error",
    "value": "Неправильное имя"
  },
  {
    "key": "menu-card-btn-send",
    "value": "ОТПРАВИТЬ"
  },
  {
    "key": "menu-card-safety-label",
    "value": "Данные вашей банковской карты обрабатываются платежным центром PayU и защищены 256-битным шифрованием, обеспеченным компанией COMODO.\\n\nСайт отвечает стандартам безопасности платежных систем Visa и MasterCard (PCI complliance)"
  },
  {
    "key": "language-short-label-en",
    "value": "ENG"
  },
  {
    "key": "language-short-label-ru",
    "value": "RU"
  },
  {
    "key": "language-short-label-fr",
    "value": "FR"
  },
  {
    "key": "language-short-label-de",
    "value": "DE"
  },
  {
    "key": "subtitles-short-label",
    "value": "CC"
  },
  {
    "key": "settings-title",
    "value": "Настройки"
  },
  {
    "key": "settings-language-label",
    "value": "Язык"
  },
  {
    "key": "settings-language-btn-en",
    "value": "En"
  },
  {
    "key": "settings-language-btn-ru",
    "value": "Ru"
  },
  {
    "key": "settings-language-btn-fr",
    "value": "Fr"
  },
  {
    "key": "settings-language-btn-de",
    "value": "De"
  },
  {
    "key": "settings-language-btn-es",
    "value": "Es"
  },
  {
    "key": "settings-language-btn-ch",
    "value": "Ch"
  },
  {
    "key": "settings-subtitles-label",
    "value": "Субтитры"
  },
  {
    "key": "settings-subtitles-btn-none",
    "value": "Нет"
  },
  {
    "key": "settings-subtitles-btn-en",
    "value": "En"
  },
  {
    "key": "settings-subtitles-btn-ru",
    "value": "Ru"
  },
  {
    "key": "settings-subtitles-btn-fr",
    "value": "Fr"
  },
  {
    "key": "settings-subtitles-btn-de",
    "value": "De"
  },
  {
    "key": "settings-subtitles-btn-es",
    "value": "Es"
  },
  {
    "key": "settings-subtitles-btn-ch",
    "value": "Ch"
  },
  {
    "key": "settings-quality-label",
    "value": "Качество"
  },
  {
    "key": "settings-quality-btn-1080",
    "value": "1080"
  },
  {
    "key": "settings-quality-btn-720",
    "value": "720"
  },
  {
    "key": "settings-quality-btn-480",
    "value": "480"
  },
  {
    "key": "settings-quality-btn-360",
    "value": "360"
  },
  {
    "key": "settings-quality-btn-240",
    "value": "240"
  },
  {
    "key": "settings-share-label",
    "value": "Поделиться"
  },
  {
    "key": "settings-btn-caption",
    "value": "Создатели"
  },
  {
    "key": "game-hp-btn-click",
    "value": "ПОМОГИ МНЕ"
  },
  {
    "key": "game-menu-achievement-header",
    "value": "Поздравляем! Ваше достижение"
  },
  {
    "key": "game-menu-score-label-1",
    "value": "ВАШ"
  },
  {
    "key": "game-menu-score-label-2",
    "value": "РЕЗУЛЬТАТ"
  },
  {
    "key": "game-menu-score-label-1_2",
    "value": "ВАШ РЕЗУЛЬТАТ"
  },
  {
    "key": "game-menu-share-label",
    "value": "Расскажите друзьям о нас"
  },
  {
    "key": "game-menu-btn-repeat",
    "value": "НАЧАТЬ С НАЧАЛА"
  },
  {
    "key": "game-menu-btn-test",
    "value": "ПРОЙТИ ТЕСТ"
  },
  {
    "key": "game-menu-lose-header",
    "value": "Вы не смогли выжить"
  },
  {
    "key": "game-menu-btn-continue",
    "value": "ПОВТОРИТЬ"
  },
  {
    "key": "game-menu-btn-support",
    "value": "поддержать проект"
  },
  {
    "key": "game-menu-btn-back",
    "value": "Назад"
  },
  {
    "key": "game-menu-help-label",
    "value": "Перед тем, как продолжить, помогите нам"
  },
  {
    "key": "game-menu-ads-label",
    "value": "Посмотреть рекламу"
  },
  {
    "key": "game-menu-or-label",
    "value": "или"
  },
  {
    "key": "game-menu-ads-continue-confirmation-label",
    "value": "Вы действительно хотите продолжить?"
  },
  {
    "key": "game-menu-btn-yes",
    "value": "ДА"
  },
  {
    "key": "game-menu-content-loading-label",
    "value": "Загрузка контента, пожалуйста подождите"
  },
  {
    "key": "game-tutorial-header",
    "value": "Обучение"
  },
  {
    "key": "game-menu-test-answer-2-4",
    "value": "Больше нелинейного сюжета"
  },
  {
    "key": "game-tutorial-bottom-descr",
    "value": "У вас будет ограниченное время, чтобы выполнить действие."
  },
  {
    "key": "game-tutorial-descr-gesture",
    "value": "Повторите кривую. "
  },
  {
    "key": "game-tutorial-descr-gesture-2",
    "value": "Нажмите и удерживайте левую кнопку мыши, чтобы начать рисовать линию. Отпустите левую кнопку, когда закончите.\\n\nУ вас ограниченное время."
  },
  {
    "key": "game-tutorial-descr-tapping",
    "value": "Нажимайте как можно быстрее."
  },
  {
    "key": "game-tutorial-descr-tapping-2",
    "value": "Нажимайте на кнопку, пока круг не заполнится."
  },
  {
    "key": "game-tutorial-descr-tapping-3",
    "value": "У вас будет ограниченное время."
  },
  {
    "key": "game-tutorial-tapping-tap-label",
    "value": "тап"
  },
  {
    "key": "game-tutorial-tapping-press-label",
    "value": "НАЖИМАЙТЕ"
  },
  {
    "key": "game-tutorial-descr-tap_and_hold",
    "value": "Нажмите и Удерживайте кнопку, пока круг не заполнится, чтобы выполнить действие."
  },
  {
    "key": "game-tutorial-descr-tap_and_hold-2",
    "value": "Нажмите и Удерживайте кнопку, пока не закончится действие."
  },
  {
    "key": "game-tutorial-descr-tap_and_hold-3",
    "value": "У вас ограниченное время."
  },
  {
    "key": "game-tutorial-tap_and_hold-hold-label",
    "value": "удерживайте"
  },
  {
    "key": "game-tutorial-tap_and_hold-hold-label-2",
    "value": "УДЕРЖИВАЙТЕ"
  },
  {
    "key": "game-tutorial-descr-figures",
    "value": "Нажмите кнопку, чтобы выполнить действие."
  },
  {
    "key": "game-tutorial-figures-task-label",
    "value": "НАЖМИТЕ \"   \""
  },
  {
    "key": "game-tutorial-figures-task-label-2",
    "value": "Нажмите “{0}”"
  },
  {
    "key": "game-tutorial-descr-kick",
    "value": "Нажмите на объект, чтобы выполнить действие."
  },
  {
    "key": "game-tutorial-kick-task-label",
    "value": "НАЖМИТЕ НА ОБЪЕКТ"
  },
  {
    "key": "game-tutorial-descr-choose",
    "value": "Выберите одно из действий, чтобы продолжить."
  },
  {
    "key": "game-tutorial-choose-task-label",
    "value": "ВАШ ВЫБОР?"
  },
  {
    "key": "game-tutorial-choose-btn-1",
    "value": "БЕЖАТЬ"
  },
  {
    "key": "game-tutorial-choose-btn-2",
    "value": "ПЕРЕДОХНУТЬ"
  },
  {
    "key": "game-menu-test-answer-2-5",
    "value": "Более сложный сюжет"
  },
  {
    "key": "game-menu-test-answer-2-6",
    "value": "Ничего"
  },
  {
    "key": "game-tutorial-descr-gyro",
    "value": "Удерживайте объект на платформе, наклоняя телефон в соответствующие стороны."
  },
  {
    "key": "game-tutorial-descr-gyro-keyboard",
    "value": "Используйте стрелки ВЛЕВО-ВПРАВО чтобы двигать платформу."
  },
  {
    "key": "game-tutorial-descr-gyro-2",
    "value": "Удерживайте объект на платформе."
  },
  {
    "key": "game-tutorial-gyro-press-label",
    "value": "НАЖИМАЙТЕ"
  },
  {
    "key": "game-tutorial-gyro-or-label",
    "value": "ИЛИ"
  },
  {
    "key": "game-tutorial-gyro-time-label",
    "value": "Время"
  },
  {
    "key": "game-menu-views-label",
    "value": "просмотров"
  },
  {
    "key": "game-achievement-header",
    "value": "ваше достижение"
  },
  {
    "key": "game-achievement-label",
    "value": "выбрали то же"
  },
  {
    "key": "game-menu-leaderboard-header",
    "value": "Таблица рекордов"
  },
  {
    "key": "game-menu-leaderboard-descr-1",
    "value": "Это результаты лучших игроков"
  },
  {
    "key": "game-menu-leaderboard-descr-2",
    "value": "Очки зависят от темпа прохождения интерактива"
  },
  {
    "key": "game-menu-leaderboard-name-label",
    "value": "Имя"
  },
  {
    "key": "game-menu-leaderboard-score-label",
    "value": "Очки"
  },
  {
    "key": "game-menu-leaderboard-btn-world",
    "value": "МИРОВЫЕ"
  },
  {
    "key": "game-menu-leaderboard-btn-my",
    "value": "МОИ"
  },
  {
    "key": "game-menu-test-header",
    "value": "Тест"
  },
  {
    "key": "game-menu-test-descr",
    "value": "Наш продукт является экспериментом и мы рады любому отзыву.\\n\nПожалуйста, ответьте на несколько вопросов. Это займет менее 2 минут."
  },
  {
    "key": "game-menu-test-question-1",
    "value": "Вам понравился наш продукт?"
  },
  {
    "key": "game-menu-test-answer-1-1",
    "value": "Отлично"
  },
  {
    "key": "game-menu-test-answer-1-2",
    "value": "Хорошо"
  },
  {
    "key": "game-menu-test-answer-1-3",
    "value": "Нормально"
  },
  {
    "key": "game-menu-test-answer-1-4",
    "value": "Плохо"
  },
  {
    "key": "game-menu-test-answer-1-5",
    "value": "Отвратительно"
  },
  {
    "key": "game-menu-test-question-2",
    "value": "Что вам хотелось бы увидеть в нашем продукте?"
  },
  {
    "key": "game-menu-test-question-2-descr",
    "value": "(несколько вариантов)"
  },
  {
    "key": "game-menu-test-answer-2-1",
    "value": "Больше типов управления"
  },
  {
    "key": "game-menu-test-answer-2-2",
    "value": "Больше игровой составляющей"
  },
  {
    "key": "game-menu-test-answer-2-3",
    "value": "Больше контента"
  },
  {
    "key": "game-menu-test-answer-2-7",
    "value": "Напишите ваш вариант"
  },
  {
    "key": "game-menu-test-question-3",
    "value": "Хотели бы вы поиграть в похожее снова?"
  },
  {
    "key": "game-menu-test-answer-3-1",
    "value": "Да"
  },
  {
    "key": "game-menu-test-answer-3-2",
    "value": "Нет"
  },
  {
    "key": "game-menu-test-question-4",
    "value": "Хотели бы вы посмотреть\\n\nподобное в кинотеатре?"
  },
  {
    "key": "game-menu-test-answer-4-1",
    "value": "Да"
  },
  {
    "key": "game-menu-test-answer-4-2",
    "value": "Нет"
  },
  {
    "key": "game-menu-test-question-5",
    "value": "Спасибо! Начать игру?"
  },
  {
    "key": "game-menu-test-answer-5-1",
    "value": "ДА"
  },
  {
    "key": "game-menu-test-scrolling-content-label",
    "value": "можно листать"
  },
  {
    "key": "game-controls-btn-pause",
    "value": "Пауза"
  },
  {
    "key": "game-controls-btn-play",
    "value": "Продолжить"
  },
  {
    "key": "game-internet-quality-label",
    "value": "Низкая скорость интернета, уменьшение качества видео.\\n\n<color=\"red\">Вернуть высокое качество</color>"
  },
  {
    "key": "game-menu-btn-records",
    "value": "посмотреть таблицу рекордов"
  },
  {
    "key": "game-menu-achievements-hiddel-label",
    "value": "5 скрытых достижений"
  },
  {
    "key": "game-menu-btn-test-2",
    "value": "Пройти тест"
  },
  {
    "key": "game-saving-label",
    "value": "Сохранение"
  },
  {
    "key": "game-achievement-label-main-1",
    "value": "ЭГОИСТ"
  },
  {
    "key": "game-achievement-label-main-2",
    "value": "МИРОЛЮБИЕ"
  },
  {
    "key": "game-achievement-label-main-3",
    "value": "УБИЙЦА"
  },
  {
    "key": "game-achievement-label-secondary-1",
    "value": "Приказ есть приказ"
  },
  {
    "key": "game-achievement-label-secondary-2",
    "value": "Без компромиссов"
  },
  {
    "key": "game-achievement-label-secondary-3",
    "value": "Сила Добра"
  },
  {
    "key": "game-achievement-label-secondary-4",
    "value": "Самаритянин"
  },
  {
    "key": "game-achievement-label-secondary-5",
    "value": "Буллет тайм"
  },
  {
    "key": "game-achievement-label-secondary-6",
    "value": "Мастер меча"
  },
  {
    "key": "game-achievement-label-secondary-7",
    "value": "Очищающее пламя"
  },
  {
    "key": "game-achievement-label-secondary-8",
    "value": "Бесшумный убийца"
  },
  {
    "key": "game-achievement-label-secondary-9",
    "value": "Я знаю кунг фу"
  },
  {
    "key": "game-achievement-label-secondary-10",
    "value": "Огонь по своим"
  },
  {
    "key": "game-achievement-label-secondary-11",
    "value": "Жертва"
  },
  {
    "key": "game-achievement-label-secondary-12",
    "value": "Весомый аргумент"
  },
  {
    "key": "game-achievement-label-egoist",
    "value": "ЭГОИСТ"
  },
  {
    "key": "game-achievement-label-peacefulness",
    "value": "МИРОЛЮБИЕ"
  },
  {
    "key": "game-achievement-label-killer",
    "value": "УБИЙЦА"
  },
  {
    "key": "game-achievement-label-order-is-order",
    "value": "Приказ есть приказ"
  },
  {
    "key": "game-achievement-label-no-mercy",
    "value": "Без компромиссов"
  },
  {
    "key": "game-achievement-label-power-of-good",
    "value": "Сила Добра"
  },
  {
    "key": "game-achievement-label-samaritanin",
    "value": "Самаритянин"
  },
  {
    "key": "game-achievement-label-bullet-time",
    "value": "Буллет тайм"
  },
  {
    "key": "game-achievement-label-swordmaster",
    "value": "Мастер меча"
  },
  {
    "key": "game-achievement-label-purifying-fire",
    "value": "Очищающее пламя"
  },
  {
    "key": "game-achievement-label-silent-assassin",
    "value": "Бесшумный убийца"
  },
  {
    "key": "game-achievement-label-i-do-kung-fu",
    "value": "Я знаю кунг фу"
  },
  {
    "key": "game-achievement-label-friendly-fire",
    "value": "Огонь по своим"
  },
  {
    "key": "game-achievement-label-victim",
    "value": "Жертва"
  },
  {
    "key": "game-achievement-label-weight-argument",
    "value": "Весомый аргумент"
  },
  {
    "key": "game-achievement-label-hidden",
    "value": "Скрытое достижение"
  },
  {
    "key": "game-event-choose-chapter-20-question",
    "value": "ВАШ ВЫБОР?"
  },
  {
    "key": "game-event-choose-chapter-20-answer-1",
    "value": "СОГЛАСИТЬСЯ"
  },
  {
    "key": "game-event-choose-chapter-20-answer-2",
    "value": "ИГНОРИРОВАТЬ"
  },
  {
    "key": "game-event-choose-chapter-23-question",
    "value": "ВАШ ВЫБОР?"
  },
  {
    "key": "game-event-choose-chapter-23-answer-1",
    "value": "УГРОЗА"
  },
  {
    "key": "game-event-choose-chapter-23-answer-2",
    "value": "СОГЛАСИЕ"
  },
  {
    "key": "game-event-choose-chapter-26-question",
    "value": "ВАШ ВЫБОР?"
  },
  {
    "key": "game-event-choose-chapter-26-answer-1",
    "value": "ВЗЯТЬ С СОБОЙ"
  },
  {
    "key": "game-event-choose-chapter-26-answer-2",
    "value": "ОСТАВИТЬ"
  },
  {
    "key": "game-event-choose-chapter-35-question",
    "value": "ВАШ ВЫБОР?"
  },
  {
    "key": "game-event-choose-chapter-35-answer-1",
    "value": "ПРОРЫВ"
  },
  {
    "key": "game-event-choose-chapter-35-answer-2",
    "value": "ОБЪЯСНИТЬ"
  },
  {
    "key": "game-event-choose-chapter-36_1-question",
    "value": "ВАШ ВЫБОР?"
  },
  {
    "key": "game-event-choose-chapter-36_1-answer-1",
    "value": "ПРИНЯТЬ ПОМОЩЬ"
  },
  {
    "key": "game-event-choose-chapter-36_1-answer-2",
    "value": "ОТКАЗАТЬСЯ"
  },
  {
    "key": "game-event-choose-chapter-36_1-part1-question",
    "value": "ВАШ ВЫБОР?"
  },
  {
    "key": "game-event-choose-chapter-36_1-part1-answer-1",
    "value": "ПРИНЯТЬ ПОМОЩЬ"
  },
  {
    "key": "game-event-choose-chapter-36_1-part1-answer-2",
    "value": "ОТКАЗАТЬСЯ"
  },
  {
    "key": "game-event-choose-chapter-4-question",
    "value": "ВАШ ВЫБОР?"
  },
  {
    "key": "game-event-choose-chapter-4-answer-1",
    "value": "БЕЖАТЬ"
  },
  {
    "key": "game-event-choose-chapter-4-answer-2",
    "value": "ПЕРЕДОХНУТЬ"
  },
  {
    "key": "test-button-update-strings",
    "value": "Update strings"
  },
  {
    "key": "character-anton",
    "value": "Anton"
  },
  {
    "key": "character-max",
    "value": "Max"
  },
  {
    "key": "game-menu-failed-to-save-brother-label",
    "value": "Вам не удалось спасти брата"
  },
  {
    "key": "loading-hint-header",
    "value": "Подсказка"
  },
  {
    "key": "loading-hint-text-1",
    "value": "Тапать, удерживать и проводить траектории можно по любой области экрана "
  },
  {
    "key": "loading-hint-text-2",
    "value": "Чем быстрее и точнее вы выполняете заданные интерактивы, тем больше очков получаете"
  },
  {
    "key": "loading-hint-text-3",
    "value": "Время выполнения интерактива ограничено! Торопитесь, иначе последствия будут непредсказуемы "
  },
  {
    "key": "settings-quality-btn-auto",
    "value": "Авто"
  },
  {
    "key": "game-menu-btn-menu",
    "value": "В МЕНЮ"
  },
  {
    "key": "settings-btn-soundtracks",
    "value": "Саундтрек на {0}"
  },
  {
    "key": "settings-btn-soundtracks-ios-label",
    "value": "iTunes"
  },
  {
    "key": "settings-btn-soundtracks-android-label",
    "value": "Google Music"
  },
  {
    "key": "email-auth-signup-cancel",
    "value": "Регистрация была отменена"
  },
  {
    "key": "email-auth-signup-unknown-error",
    "value": "Неизвестная ошибка"
  },
  {
    "key": "email-auth-verify-email-cancel",
    "value": "Отправка подтверждающего письма была отменена"
  },
  {
    "key": "email-auth-verify-email-unknown-error",
    "value": "Неизвестная ошибка"
  },
  {
    "key": "email-auth-verify-email-sent",
    "value": "Письмо для подтверждения электронной почты было успешно отправлено"
  },
  {
    "key": "email-auth-signin-cancel",
    "value": "Вход был отменен"
  },
  {
    "key": "email-auth-signin-unknown-error",
    "value": "Неизвестная ошибка"
  },
  {
    "key": "email-auth-signin-email-not-verified",
    "value": "Email не подтвержден"
  },
  {
    "key": "email-auth-signin-success",
    "value": "Успешно"
  },
  {
    "key": "email-auth-reset-pass-cancel",
    "value": "Сброс пароля был отменен"
  },
  {
    "key": "email-auth-reset-pass-unknown-error",
    "value": "Неизвестная ошибка"
  },
  {
    "key": "email-auth-reset-pass-success",
    "value": "Письмо для сброса пароля было отправлено"
  },
  {
    "key": "email-auth-empty-email",
    "value": "Поле e-mail не может быть пустым"
  },
  {
    "key": "email-auth-empty-pass",
    "value": "Поле пароль не может быть пустым"
  },
  {
    "key": "game-menu-btn-repeat-new",
    "value": "НАЧАТЬ С НАЧАЛА"
  },
  {
    "key": "settings-video-language-label",
    "value": "Дубляж"
  },
  {
    "key": "game-tutorial-gyro-time-before-start",
    "value": "Start in {0}"
  },
  {
    "key": "loading-headphones-label",
    "value": "Best play with headphones"
  },
  {
    "key": "game-tutorial-descr-switch-characters",
    "value": "Tap the icon to switch characters."
  },
  {
    "key": "game-memory-warning-popup-header",
    "value": "Высокое потребление оперативной памяти."
  },
  {
    "key": "game-memory-warning-popup-description",
    "value": "Возможно продолжение с более низким уровнем качества видео."
  },
  {
    "key": "game-memory-warning-popup-continue-btn",
    "value": "Продолжить"
  },
  {
    "key": "game-email-sent-info",
    "value": "Штраф был отправлен на электронную почту:"
  },
  {
    "key": "game-email-sent-btn-close",
    "value": "Ok"
  },
  {
    "key": "email-subject",
    "value": "Interactive Video"
  },
  {
    "key": "email-label-platform",
    "value": "Interactive Video"
  },
  {
    "key": "email-header-1",
    "value": "Вы превысили скорость"
  },
  {
    "key": "email-header-2",
    "value": "Вам выписан штраф"
  },
  {
    "key": "email-info-time",
    "value": "Время фиксации - "
  },
  {
    "key": "email-info-date",
    "value": "Дата фиксации - "
  },
  {
    "key": "email-info-device",
    "value": "Прибор № - 1203238"
  },
  {
    "key": "email-info-limit",
    "value": "Разрешенная скорость - 90 км/ч"
  },
  {
    "key": "email-info-speed",
    "value": "Скорость - 123 км/ч"
  },
  {
    "key": "email-info-fine",
    "value": "$10"
  },
  {
    "key": "email-description-1",
    "value": "Без паники. Этот штраф - элемент интерактивного фильма “Разоблаченные”. Наш фильм - эксперимент, и от Вас зависит, будет ли он удачным. Данный фильм для Вас бесплатный и будет таковым всегда. Если Вам понравилось и Вы хотите играть в другие подобные интерактивные фильмы - расскажите о фильме друзьям и поддержите нас на любую сумму."
  },
  {
    "key": "email-descsription-2",
    "value": "А мы в свою очередь будем воплощать в жизнь еще более амбициозные проекты."
  },
  {
    "key": "email-btn-donate",
    "value": "ПОДДЕРЖАТЬ"
  },
  {
    "key": "email-label-payment-info",
    "value": "Данные вашей банковской карты обрабатываются платежным центром PayU и защищены 256-битным шифрованием, обеспеченным компанией COMODO. Сайт отвечает стандартам безопасности платежных систем Visa и MasterCard (PCI complliance)"
  }
]