{
  "game": {
    "friendlyGame": true,
    "showPoints": false,
    "resizeAspect": true,
    "name": "dan",
    "version": "1.4",
    "characters": [
    ],
    "objects": [
      {"type":"hand"}
    ],
    "avatars": [
    ],
    "assets": [
      "/assets/incoming_call_tatar.jpg",
      "/assets/incoming_call_kira.jpg",
      "/assets/incoming_call_arthur.jpg"
    ],
    "chapters": [
      {
        "id": "1_1",
        "passNode": "1_1",
        "deadNode": "",
        "next": [
          "1_6"
        ]
      },
      {
        "id": "1_6",
        "passNode": "1_6",
        "deadNode": "",
        "next": [
          "1_9_1",
          "1_9_2"
        ]
      },
      {
        "id": "1_9_1",
        "passNode": "1_9_1",
        "preloadingRequired": true,
        "deadNode": "",
        "next": [
          "1_6"
        ]
      },
      {
        "id": "1_9_2",
        "passNode": "1_9_2",
        "deadNode": "",
        "next": [
          "2_4_2",
          "2_4_1"
        ]
      },
      {
        "id": "1_9_2_1",
        "deadNode": "",
        "preloadingRequired": true,
        "next": [
          "1_9_2_2"
        ]
      },
      {
        "id": "1_9_2_2",
        "deadNode": "",
        "next": [
          "2_4_2",
          "2_4_1"
        ]
      },
      {
        "id": "2_4_2",
        "passNode": "2_4_2",
        "preloadingRequired": true,
        "deadNode": "",
        "next": [
          "2_5"
        ]
      },
      {
        "id": "2_4_1",
        "passNode": "2_4_1",
        "preloadingRequired": true,
        "deadNode": "",
        "next": [
          "2_5"
        ]
      },
      {
        "id": "2_5",
        "passNode": "2_5",
        "deadNode": "",
        "next": [
          "3_1",
          "4_1"
        ]
      },
      {
        "id": "3_1",
        "deadNode": "",
        "next": [
          "3_1_1"
        ]
      },
      {
        "id": "3_1_1",
        "deadNode": "",
        "next": [
          "3_3"
        ]
      },
      {
        "id": "3_3",
        "passNode": "3_3",
        "deadNode": "",
        "next": [
          "call_tatarin_blank_video"
        ]
      },
      {
        "id": "call_tatarin_blank_video",
        "passNode": "call_tatarin_blank_video",
        "deadNode": "",
        "next": [
          "call_tatarin"
        ]
      },
      {
        "id": "call_tatarin",
        "passNode": "call_tatarin",
        "deadNode": "",
        "next": [
          "2_5"
        ]
      },
      {
        "id": "4_1",
        "deadNode": "",
        "next": [
          "4_4_1_car",
          "5_1"
        ]
      },
      {
        "id": "4_4_1_car",
        "deadNode": "",
        "next": [
          "4_4_1"
        ]
      },
      {
        "id": "4_4_1",
        "deadNode": "",
        "next": [
          "4_4_1_vistrel"
        ]
      },
      {
        "id": "4_4_1_vistrel",
        "deadNode": "",
        "next": [
          "4_1"
        ]
      },
      {
        "id": "5_1",
        "deadNode": "",
        "next": [
          "5_4_1"
        ]
      },
      {
        "id": "5_4_1",
        "deadNode": "",
        "next": [
          "5_4_1_1"
        ]
      },
      {
        "id": "5_4_1_1",
        "deadNode": "",
        "next": [
          "5_4_2"
        ]
      },
      {
        "id": "5_4_2",
        "deadNode": "",
        "next": [
          "5_4_2pt2"
        ]
      },
      {
        "id": "5_4_2pt2",
        "deadNode": "",
        "next": [
          "6_2"
        ]
      },
      {
        "id": "6_2",
        "deadNode": "",
        "next": [
          "6_2_1_1",
          "6_2_2"
        ]
      },
      {
        "id": "6_2_1_1",
        "deadNode": "",
        "next": [
          "6_2_1_2"
        ]
      },
      {
        "id": "6_2_1_2",
        "deadNode": "",
        "next": [
          "7_1"
        ]
      },
      {
        "id": "6_2_2",
        "deadNode": "",
        "next": [
          "7_1"
        ]
      },
      {
        "id": "7_1",
        "passNode": "7_1",
        "deadNode": "",
        "next": [
          "call_friend_blank_video",
          "call_kira_blank_video"
        ]
      },
      {
        "id": "call_friend_blank_video",
        "deadNode": "",
        "next": [
          "call_friend"
        ]
      },
      {
        "id": "call_kira_blank_video",
        "deadNode": "",
        "next": [
          "call_kira"
        ]
      },
      {
        "id": "call_friend",
        "passNode": "call_friend",
        "deadNode": "",
        "next": [
          "captions"
        ]
      },
      {
        "id": "call_kira",
        "passNode": "call_kira",
        "deadNode": "",
        "next": [
          "captions"
        ]
      },

      {
        "id": "captions",
        "passNode": "captions",
        "deadNode": "",
        "next": []
      }
    ],
    "events": [
      {
        "chapter": "1_6",
        "time": 15,
        "type": "Choice",
        "isTutorial": true,
        "isEnabledTimerInTutorial": false,
        "isDead": false,
        "id": 1,
        "penalty": 0,
        "timeout": 1000.0,
        "data-mobile": {
          "question": "game-event-choose-chapter-1_6-question",
          "variants": [
            "game-event-choose-chapter-1_6-answer-1",
            "game-event-choose-chapter-1_6-answer-2"
          ]
        },
        "data-webgl": {
        }
      },
      {
        "chapter": "1_9_2",
        "time": 208,
        "type": "Choice",
        "isTutorial": true,
        "isEnabledTimerInTutorial": false,
        "isDead": false,
        "id": 2,
        "penalty": 0,
        "timeout": 1000.0,
        "data-mobile": {
          "question": "game-event-choose-chapter-1_9_2-question",
          "variants": [
            "game-event-choose-chapter-1_9_2-answer-1",
            "game-event-choose-chapter-1_9_2-answer-2"
          ]
        },
        "data-webgl": {
        }
      },
      {
        "chapter": "1_9_2_2",
        "time": 203,
        "type": "Choice",
        "isTutorial": true,
        "isEnabledTimerInTutorial": false,
        "isDead": false,
        "id": 2,
        "penalty": 0,
        "timeout": 1000.0,
        "data-mobile": {
          "question": "game-event-choose-chapter-1_9_2-question",
          "variants": [
            "game-event-choose-chapter-1_9_2-answer-1",
            "game-event-choose-chapter-1_9_2-answer-2"
          ]
        },
        "data-webgl": {
        }
      },
      {
        "chapter": "2_5",
        "time": 7.0,
        "type": "Choice",
        "isTutorial": true,
        "isEnabledTimerInTutorial": false,
        "isDead": false,
        "id": 3,
        "penalty": 0,
        "timeout": 1000.0,
        "data-mobile": {
          "question": "game-event-choose-chapter-2_5-question",
          "variants": [
            "game-event-choose-chapter-2_5-answer-1",
            "game-event-choose-chapter-2_5-answer-2"
          ]
        },
        "data-webgl": {
        }
      },
      {
        "chapter": "3_1_1",
        "time": 23.0,
        "type": "VideoAds",
        "isTutorial": false,
        "isEnabledTimerInTutorial": false,
        "isDead": false,
        "id": 4,
        "penalty": 0,
        "timeout": 0.0,
        "data-mobile": {}
      },
      {
        "chapter": "call_tatarin_blank_video",
        "time": 0.0,
        "type": "IncomingCall",
        "isTutorial": false,
        "isEnabledTimerInTutorial": false,
        "isInstant": true,
        "isDead": false,
        "id": 4,
        "penalty": 0,
        "timeout": 1000,
        "data-mobile": {
          "img": "incoming_call_tatar",
          "name": "game-event-incoming-call-chapter-3_3-name",
          "incomingCall": "game-event-incoming-call-chapter-3_3-incoming-call",
          "accept": "game-event-incoming-call-chapter-3_3-accept",
          "decline": "game-event-incoming-call-chapter-3_3-decline",
          "canSkip": false,
          "acceptChapterIndex": 0
        }
      },
      {
        "chapter": "4_1",
        "time": 172,
        "type": "Choice",
        "isTutorial": false,
        "isEnabledTimerInTutorial": false,
        "isDead": false,
        "id": 5,
        "penalty": 0,
        "timeout": 5.0,
        "data-mobile": {
          "question": "game-event-choose-chapter-4_1-question",
          "variants": [
            "game-event-choose-chapter-4_1-answer-1",
            "game-event-choose-chapter-4_1-answer-2"
          ]
        },
        "data-webgl": {
        }
      },
      {
        "chapter": "5_4_1_1",
        "time": 9.0,
        "type": "VideoAds",
        "isTutorial": false,
        "isEnabledTimerInTutorial": false,
        "isDead": false,
        "id": 4,
        "penalty": 0,
        "timeout": 0.0,
        "data-mobile": {}
      },
      {
        "chapter": "6_2",
        "time": 0,
        "type": "Choice",
        "isTutorial": true,
        "isEnabledTimerInTutorial": false,
        "isDead": false,
        "id": 6,
        "penalty": 0,
        "timeout": 1000.0,
        "data-mobile": {
          "question": "q_6_2",
          "variants": [
            "a_6_2_2",
            "a_6_2_1"
          ]
        },
        "data-webgl": {
        }
      },
      {
        "chapter": "4_4_1_vistrel",
        "time": 1.0,
        "type": "Label",
        "isTutorial": false,
        "isEnabledTimerInTutorial": false,
        "isDead": false,
        "id": 1349,
        "penalty": 0,
        "timeout": 4.0,
        "data-mobile": {
          "label": "l_4_4_1_vistrel"
        },
        "data-webgl": {
        }
      },
      {
        "chapter": "call_kira_blank_video",
        "time": 0.0,
        "type": "IncomingCall",
        "isTutorial": false,
        "isEnabledTimerInTutorial": false,
        "isInstant": true,
        "isDead": false,
        "id": 61,
        "penalty": 0,
        "timeout": 1000,
        "data-mobile": {
          "img": "incoming_call_kira",
          "name": "game-event-choose-chapter-1_9_2-answer-2",
          "incomingCall": "game-event-incoming-call-chapter-3_3-incoming-call",
          "accept": "game-event-incoming-call-chapter-3_3-accept",
          "decline": "game-event-incoming-call-chapter-3_3-decline",
          "canSkip": false,
          "acceptChapterIndex": 0
        }
      },
      {
        "chapter": "call_friend_blank_video",
        "time": 0.0,
        "type": "IncomingCall",
        "isTutorial": false,
        "isEnabledTimerInTutorial": false,
        "isInstant": true,
        "isDead": false,
        "id": 62,
        "penalty": 0,
        "timeout": 1000,
        "data-mobile": {
          "img": "incoming_call_arthur",
          "name": "game-event-choose-chapter-1_9_2-answer-1",
          "incomingCall": "game-event-incoming-call-chapter-3_3-incoming-call",
          "accept": "game-event-incoming-call-chapter-3_3-accept",
          "decline": "game-event-incoming-call-chapter-3_3-decline",
          "canSkip": false,
          "acceptChapterIndex": 0
        }
      },
      {
        "chapter": "7_1",
        "time": 1,
        "type": "Karma",
        "isTutorial": false,
        "isEnabledTimerInTutorial": false,
        "isDead": false,
        "id": 7,
        "penalty": 0,
        "timeout": 0,
        "data-mobile": {
          "karmaData": {
            "outcomes": [
              {
                "selections": [
                  {
                    "chapter": "1_9_2",
                    "selection": 0
                  }
                ],
                "next": 1
              },
              {
                "selections": [
                  {
                    "chapter": "1_9_2",
                    "selection": 1
                  }
                ],
                "next": 0
              }
            ],
            "defaultOutcome": 0
          }
        },
        "data-webgl": {
        }
      },


      {
        "chapter": "5_1",
        "time": 215.0,
        "type": "Kick",
        "isTutorial": true,
        "isEnabledTimerInTutorial": false,
        "isDead": false,
        "id": 666,
        "penalty": 100,
        "timeout": 2.9,
        "data-mobile": {
	  "stopVideo": true,
          "objects": [
            {
              "type": "hand",
              "timeShow": 0.0,
              "timeHide": 0.0,
              "positions": [
                {
                  "t": 0.0,
                  "x": -0.4,
                  "y": 0.0
                }
              ],
              "scales": [
                {
                  "t": 0.0,
                  "x": 0.8,
                  "y": 0.8
                }
              ]
            }
          ]
        }
      }
    ],
    "achievements": [
    ],
    "save-points": [
      {
        "chapter": "1_9_2",
        "time": 0
      },
      {
        "chapter": "1_9_2",
        "time": 189
      },
      {
        "chapter": "3_1",
        "time": 0
      },
      {
        "chapter": "4_1",
        "time": 0
      },
      {
        "chapter": "5_1",
        "time": 0
      },
      {
        "chapter": "7_1",
        "time": 0
      }
    ],
    "localizations": [
        {
            "lang": "en",
            "data": [
                {
                    "key": "game-event-choose-chapter-3_1-question",
                    "value": "Watch"
                },
                {
                    "key": "game-event-incoming-call-chapter-3_3-accept",
                    "value": "Accept"
                },
                {
                    "key": "game-event-incoming-call-chapter-3_3-decline",
                    "value": "Decline"
                },
                {
                    "key": "a_6_2_2",
                    "value": "Evade the blow"
                },
                {
                    "key": "q_6_2",
                    "value": "What to do with the fat-ass?"
                },
                {
                    "key": "a_6_2_1",
                    "value": "Fight"
                },
                {
                    "key": "game-event-incoming-call-chapter-3_3-incoming-call",
                    "value": "Incoming Сall"
                },
                {
                    "key": "l_4_4_1_vistrel",
                    "value": "You are killed! The first rule of a Dead Man – protect your investments! "
                },
                {
                    "key": "game-event-choose-chapter-1_9_2-answer-2",
                    "value": "Keira "
                },
                {
                    "key": "game-event-choose-chapter-1_6-question",
                    "value": "How to get out?"
                },
                {
                    "key": "game-event-incoming-call-chapter-3_3-name",
                    "value": "The Tatar"
                },
                {
                    "key": "game-event-choose-chapter-5_1-question",
                    "value": "To buy a car? "
                },
                {
                    "key": "game-event-choose-chapter-3_1-answer-2",
                    "value": "Watch the ad"
                },
                {
                    "key": "game-event-choose-chapter-2_5-answer-1",
                    "value": "No"
                },
                {
                    "key": "game-event-choose-chapter-1_6-answer-1",
                    "value": "Through the door"
                },
                {
                    "key": "game-event-choose-chapter-2_5-answer-2",
                    "value": "Yes "
                },
                {
                    "key": "game-event-choose-chapter-1_9_2-answer-1",
                    "value": "Lenya"
                },
                {
                    "key": "game-event-choose-chapter-4_1-answer-1",
                    "value": "Go partying"
                },
                {
                    "key": "game-event-choose-chapter-2_5-question",
                    "value": "To borrow money to buy a car? "
                },
                {
                    "key": "game-event-choose-chapter-4_1-answer-2",
                    "value": "To the Seller "
                },
                {
                    "key": "game-event-choose-chapter-1_6-answer-2",
                    "value": "Through the window"
                },
                {
                    "key": "game-event-choose-chapter-1_9_2-question",
                    "value": "Who is guilty?"
                },
                {
                    "key": "game-event-choose-chapter-4_1-question",
                    "value": "Your choice"
                },
                {
                    "key": "game-event-choose-chapter-5_1-answer-1",
                    "value": "Yes"
                }
            ]
        }, 
        {
            "lang": "ru",
            "data": [
                {
                    "key": "game-event-choose-chapter-3_1-question",
                    "value": "Смотреть"
                },
                {
                    "key": "game-event-incoming-call-chapter-3_3-accept",
                    "value": "Accept"
                },
                {
                    "key": "game-event-incoming-call-chapter-3_3-decline",
                    "value": "Decline"
                },
                {
                    "key": "a_6_2_2",
                    "value": "Увернуться"
                },
                {
                    "key": "q_6_2",
                    "value": "Что сделать с толстяком?"
                },
                {
                    "key": "a_6_2_1",
                    "value": "Бить"
                },
                {
                    "key": "game-event-incoming-call-chapter-3_3-incoming-call",
                    "value": "Incoming Сall"
                },
                {
                    "key": "l_4_4_1_vistrel",
                    "value": "Вы убиты! Первое правило Покойника: \"Защищай свои инвестиции\""
                },
                {
                    "key": "game-event-choose-chapter-1_9_2-answer-2",
                    "value": "Кира"
                },
                {
                    "key": "game-event-choose-chapter-1_6-question",
                    "value": "Как выбраться?"
                },
                {
                    "key": "game-event-incoming-call-chapter-3_3-name",
                    "value": "Татарин"
                },
                {
                    "key": "game-event-choose-chapter-5_1-question",
                    "value": "Купить машину?"
                },
                {
                    "key": "game-event-choose-chapter-3_1-answer-2",
                    "value": "Смотреть рекламу"
                },
                {
                    "key": "game-event-choose-chapter-2_5-answer-1",
                    "value": "Нет"
                },
                {
                    "key": "game-event-choose-chapter-1_6-answer-1",
                    "value": "Из двери"
                },
                {
                    "key": "game-event-choose-chapter-2_5-answer-2",
                    "value": "Да"
                },
                {
                    "key": "game-event-choose-chapter-1_9_2-answer-1",
                    "value": "Лёня"
                },
                {
                    "key": "game-event-choose-chapter-4_1-answer-1",
                    "value": "Поехать тусить"
                },
                {
                    "key": "game-event-choose-chapter-2_5-question",
                    "value": "Занять деньги на машину?"
                },
                {
                    "key": "game-event-choose-chapter-4_1-answer-2",
                    "value": "К продавцу"
                },
                {
                    "key": "game-event-choose-chapter-1_6-answer-2",
                    "value": "Из окна"
                },
                {
                    "key": "game-event-choose-chapter-1_9_2-question",
                    "value": "Кто виноват?"
                },
                {
                    "key": "game-event-choose-chapter-4_1-question",
                    "value": "Ваш выбор?"
                },
                {
                    "key": "game-event-choose-chapter-5_1-answer-1",
                    "value": "Да"
                }
            ]
        }
    ]
  }
}
