{
  "game": {
    "friendlyGame": true,
    "showPoints": false,
    "name": "lake",
    "version": "1.4",
    "characters": [
    ],
    "objects": [
    ],
    "avatars": [
    ],
    "assets": [],
    "chapters": [
      {
        "id": "1",
        "deadNode": "",
        "defaultNode": "1_int",
        "next": [
          "1_int",
          "2"
        ]
      },
      {
        "id": "1_int",
        "deadNode": "",
        "isLoop": true,
        "defaultNode": "1_int",
        "next": [
          "1_int",
          "2"
        ]
      },
      {
        "id": "2_int",
        "deadNode": "",
        "isLoop": true,
        "defaultNode": "2_int",
        "next": [
          "2_int",
          "2_yes",
          "2_no"
        ]
      },
      {
        "id": "2_no",
        "deadNode": "",
        "defaultNode": "3_int",
        "next": [
          "3_int",
          "3_red",
          "3_white"
        ]
      },
      {
        "id": "2_yes",
        "deadNode": "",
        "defaultNode": "3_int",
        "next": [
          "3_int",
          "3_red",
          "3_white"
        ]
      },

      {
        "id": "3_int",
        "deadNode": "",
        "isLoop": true,
        "defaultNode": "3_int",
        "next": [
          "3_int",
          "3_red",
          "3_white"
        ]
      },

      {
        "id": "3_red",
        "deadNode": "",
        "defaultNode": "abc_int_loop",
        "next": [
          "abc_int_loop",
          "a_int",
          "b_int",
          "c_int"
        ]
      },


      {
        "id": "3_white",
        "deadNode": "",
        "defaultNode": "abc_int_loop",
        "next": [
          "abc_int_loop",
          "a_int",
          "b_int",
          "c_int"
        ]
      },
      {
        "id": "abc_int_loop",
        "deadNode": "",
        "isLoop": true,
        "defaultNode": "abc_int_loop",
        "next": [
          "abc_int_loop",
          "a_int",
          "b_int",
          "c_int"
        ]
      },

      {
        "id": "a_int",
        "deadNode": "",
        "defaultNode": "a_int_loop",
        "next": [
          "a_int_loop",
          "ab_int",
          "ac_int"
        ]
      },
      {
        "id": "b_int",
        "deadNode": "",
        "defaultNode": "b_int_loop",
        "next": [
          "b_int_loop",
          "ba_int",
          "bc_int"
        ]
      },
      {
        "id": "c_int",
        "deadNode": "",
        "defaultNode": "c_int_loop",
        "next": [
          "c_int_loop",
          "ca_int",
          "cb_int"
        ]
      },



      {
        "id": "a_int_loop",
        "deadNode": "",
        "isLoop": true,
        "defaultNode": "a_int_loop",
        "next": [
          "a_int_loop",
          "ab_int",
          "ac_int"
        ]
      },
      {
        "id": "b_int_loop",
        "deadNode": "",
        "isLoop": true,
        "defaultNode": "b_int_loop",
        "next": [
          "b_int_loop",
          "ba_int",
          "bc_int"
        ]
      },
      {
        "id": "c_int_loop",
        "deadNode": "",
        "isLoop": true,
        "defaultNode": "c_int_loop",
        "next": [
          "c_int_loop",
          "ca_int",
          "cb_int"
        ]
      },








      {
        "id": "ab_int",
        "deadNode": "",
        "defaultNode": "ab_int_loop",
        "next": [
          "ab_int_loop",
          "abc_int_zagadka"
        ]
      },

      {
        "id": "ac_int",
        "deadNode": "",
        "defaultNode": "ac_int_loop",
        "next": [
          "ac_int_loop",
          "acb_int_zagadka"
        ]
      },
      {
        "id": "ba_int",
        "deadNode": "",
        "defaultNode": "ba_int_loop",
        "next": [
          "ba_int_loop",
          "bac_int_zagadka"
        ]
      },

      {
        "id": "bc_int",
        "deadNode": "",
        "defaultNode": "bc_int_loop",
        "next": [
          "bc_int_loop",
          "bca_int_zagadka"
        ]
      },
      {
        "id": "ca_int",
        "deadNode": "",
        "defaultNode": "ca_int_loop",
        "next": [
          "ca_int_loop",
          "cab_int_zagadka"
        ]
      },

      {
        "id": "cb_int",
        "deadNode": "",
        "defaultNode": "cb_int_loop",
        "next": [
          "cb_int_loop",
          "cba_int_zagadka"
        ]
      },
      {
        "id": "ab_int_loop",
        "deadNode": "",
        "isLoop": true,
        "defaultNode": "ab_int_loop",
        "next": [
          "ab_int_loop",
          "abc_int_zagadka"
        ]
      },

      {
        "id": "ac_int_loop",
        "deadNode": "",
        "isLoop": true,
        "defaultNode": "ac_int_loop",
        "next": [
          "ac_int_loop",
          "acb_int_zagadka"
        ]
      },
      {
        "id": "ba_int_loop",
        "deadNode": "",
        "isLoop": true,
        "defaultNode": "ba_int_loop",
        "next": [
          "ba_int_loop",
          "bac_int_zagadka"
        ]
      },

      {
        "id": "bc_int_loop",
        "deadNode": "",
        "isLoop": true,
        "defaultNode": "bc_int_loop",
        "next": [
          "bc_int_loop",
          "bca_int_zagadka"
        ]
      },


      {
        "id": "ca_int_loop",
        "deadNode": "",
        "isLoop": true,
        "defaultNode": "ca_int_loop",
        "next": [
          "ca_int_loop",
          "cab_int_zagadka"
        ]
      },

      {
        "id": "cb_int_loop",
        "deadNode": "",
        "isLoop": true,
        "defaultNode": "cb_int_loop",
        "next": [
          "cb_int_loop",
          "cba_int_zagadka"
        ]
      },






      {
        "id": "abc_int_zagadka",
        "deadNode": "",
        "defaultNode": "4_4_int_zag_7sec_loop",
        "next": [
          "4_4_int_zag_7sec_loop",
          "fail1",
          "fail2",
          "fail3",
          "fail4",
          "fail5",
          "fail6",
          "fail7",
          "fail8",
          "fail9",
          "fail10",
          "fail11",
          "fail12",
          "5"
        ]
      },
      {
        "id": "acb_int_zagadka",
        "deadNode": "",
        "defaultNode": "4_4_int_zag_7sec_loop",
        "next": [
          "4_4_int_zag_7sec_loop",
          "fail1",
          "fail2",
          "fail3",
          "fail4",
          "fail5",
          "fail6",
          "fail7",
          "fail8",
          "fail9",
          "fail10",
          "fail11",
          "fail12",
          "5"
        ]
      },
      {
        "id": "bac_int_zagadka",
        "deadNode": "",
        "defaultNode": "4_4_int_zag_7sec_loop",
        "next": [
          "4_4_int_zag_7sec_loop",
          "fail1",
          "fail2",
          "fail3",
          "fail4",
          "fail5",
          "fail6",
          "fail7",
          "fail8",
          "fail9",
          "fail10",
          "fail11",
          "fail12",
          "5"
        ]
      },
      {
        "id": "bca_int_zagadka",
        "deadNode": "",
        "defaultNode": "4_4_int_zag_7sec_loop",
        "next": [
          "4_4_int_zag_7sec_loop",
          "fail1",
          "fail2",
          "fail3",
          "fail4",
          "fail5",
          "fail6",
          "fail7",
          "fail8",
          "fail9",
          "fail10",
          "fail11",
          "fail12",
          "5"
        ]
      },
      {
        "id": "cab_int_zagadka",
        "deadNode": "",
        "defaultNode": "4_4_int_zag_7sec_loop",
        "next": [
          "4_4_int_zag_7sec_loop",
          "fail1",
          "fail2",
          "fail3",
          "fail4",
          "fail5",
          "fail6",
          "fail7",
          "fail8",
          "fail9",
          "fail10",
          "fail11",
          "fail12",
          "5"
        ]
      },
      {
        "id": "cba_int_zagadka",
        "deadNode": "",
        "defaultNode": "4_4_int_zag_7sec_loop",
        "next": [
          "4_4_int_zag_7sec_loop",
          "fail1",
          "fail2",
          "fail3",
          "fail4",
          "fail5",
          "fail6",
          "fail7",
          "fail8",
          "fail9",
          "fail10",
          "fail11",
          "fail12",
          "5"
        ]
      },




      {
        "id": "2",
        "deadNode": "",
        "defaultNode": "2_int",
        "next": [
          "2_int",
          "2_yes",
          "2_no"
        ]
      },


      {
        "id": "4_4_int_zag_7sec_loop",
        "deadNode": "",
        "defaultNode": "4_4_int_zag_7sec_loop",
        "isLoop": true,
        "next": [
          "4_4_int_zag_7sec_loop",
          "fail1",
          "fail2",
          "fail3",
          "fail4",
          "fail5",
          "fail6",
          "fail7",
          "fail8",
          "fail9",
          "fail10",
          "fail11",
          "fail12",
          "5"
        ]
      },
      {
        "id": "4_4_int_zag_7sec_loop_2",
        "deadNode": "",
        "defaultNode": "4_4_int_zag_7sec_loop",
        "next": [
          "4_4_int_zag_7sec_loop",
          "fail1",
          "fail2",
          "fail3",
          "fail4",
          "fail5",
          "fail6",
          "fail7",
          "fail8",
          "fail9",
          "fail10",
          "fail11",
          "fail12",
          "5"
        ]
      },

      {
        "id": "fail1",
        "deadNode": "",
        "next": [
          "4_4_int_zag_7sec_loop_2"
        ]
      },
      {
        "id": "fail2",
        "deadNode": "",
        "next": [
          "4_4_int_zag_7sec_loop_2"
        ]
      },
      {
        "id": "fail3",
        "deadNode": "",
        "next": [
          "4_4_int_zag_7sec_loop_2"
        ]
      },
      {
        "id": "fail4",
        "deadNode": "",
        "next": [
          "4_4_int_zag_7sec_loop_2"
        ]
      },
      {
        "id": "fail5",
        "deadNode": "",
        "next": [
          "4_4_int_zag_7sec_loop_2"
        ]
      },
      {
        "id": "fail6",
        "deadNode": "",
        "next": [
          "4_4_int_zag_7sec_loop_2"
        ]
      },
      {
        "id": "fail7",
        "deadNode": "",
        "next": [
          "4_4_int_zag_7sec_loop_2"
        ]
      },
      {
        "id": "fail8",
        "deadNode": "",
        "next": [
          "4_4_int_zag_7sec_loop_2"
        ]
      },
      {
        "id": "fail9",
        "deadNode": "",
        "next": [
          "4_4_int_zag_7sec_loop_2"
        ]
      },
      {
        "id": "fail10",
        "deadNode": "",
        "next": [
          "4_4_int_zag_7sec_loop_2"
        ]
      },
      {
        "id": "fail11",
        "deadNode": "",
        "next": [
          "4_4_int_zag_7sec_loop_2"
        ]
      },
      {
        "id": "fail12",
        "deadNode": "",
        "next": [
          "4_4_int_zag_7sec_loop_2"
        ]
      },
      {
        "id": "5",
        "deadNode": "",
        "defaultNode": "6_short",
        "next": [
          "6_1",
          "6_2",
          "6_short"
        ]
      },
      {
        "id": "6_1",
        "deadNode": "",
        "defaultNode": "7_short",
        "next": [
          "7_short",
          "7_1",
          "7_2"
        ]
      },
      {
        "id": "6_2",
        "deadNode": "",
        "defaultNode": "6_short",
        "next": [
          "6_1",
          "6_2",
          "6_short"
        ]
      },
      {
        "id": "6_short",
        "deadNode": "",
        "defaultNode": "6_call",
        "next": [
          "6_1",
          "6_2",
          "6_call"
        ]
      },
      {
        "id": "6_call",
        "deadNode": "",
        "defaultNode": "6_short",
        "next": [
          "6_1",
          "6_2",
          "6_short"
        ]
      },
      {
        "id": "7_short",
        "deadNode": "",
        "isLoop": true,
        "defaultNode": "7_short",
        "next": [
          "7_short",
          "7_1",
          "7_2"
        ]
      },
      {
        "id": "7_1",
        "deadNode": "",
        "next": [
          "7_end",
          "7_2"
        ]
      },
      {
        "id": "7_2",
        "deadNode": "",
        "next": []
      },
      {
        "id": "7_end",
        "deadNode": "",
        "next": []
      }
    ],
    "events": [
      {
        "chapter": "1",
        "time": 75.0,
        "type": "RegistrationForm",
        "isTutorial": false,
        "isEnabledTimerInTutorial": false,
        "isDead": false,
        "isInstant": true,
        "id": 150,
        "penalty": 0,
        "timeout": 1000,
        "isStartChainEvent": true,
        "isChainEvent": true,
        "isEndChainEvent": false,
        "chainEventsId": [
          150,
          151
        ],
        "data-mobile": {
          "deleteOnlyAfterInteraction": true,
          "topic": "HOTELTICKET"
        },
        "data-webgl": {
        }
      },
      {
        "chapter": "1_int",
        "time": 0.0,
        "type": "RegistrationForm",
        "isTutorial": false,
        "isEnabledTimerInTutorial": false,
        "isDead": false,
        "isInstant": true,
        "id": 151,
        "penalty": 0,
        "timeout": 1000,
        "isStartChainEvent": false,
        "isChainEvent": true,
        "isEndChainEvent": false,
        "chainEventsId": [
          150,
          151
        ],
        "data-mobile": {
          "deleteOnlyAfterInteraction": true,
          "topic": "HOTELTICKET"
        },
        "data-webgl": {
        }
      },

      {
        "chapter": "3_red",
        "time": 33.0,
        "type": "Kick",
        "isTutorial": false,
        "isInstant": true,
        "isHideTimer": true,
        "isEnabledTimerInTutorial": false,
        "isDead": false,
        "id": 1000,
        "penalty": 0,
        "timeout": 1000.0,
        "isStartChainEvent": true,
        "isChainEvent": true,
        "isEndChainEvent": false,
        "chainEventsId": [
          1000,
          2000
        ],
        "data-mobile": {
          "deleteOnlyAfterInteraction": true,
          "objects": [
            {
              "nextChapterIndex": 1,
              "type": "hand",
              "timeShow": 0.0,
              "timeHide": 0.0,
              "invisible": true,
              "positions": [
                {
                  "t": 0.0,
                  "x": -0.8,
                  "y": 0.0
                }
              ],
              "radius": 0.3
            },
            {
              "nextChapterIndex": 2,
              "type": "hand",
              "timeShow": 0.0,
              "timeHide": 0.0,
              "invisible": true,
              "positions": [
                {
                  "t": 0.0,
                  "x": 0.0,
                  "y": 0.0
                }
              ],
              "radius": 0.3
            },
            {
              "nextChapterIndex": 3,
              "type": "hand",
              "timeShow": 0.0,
              "timeHide": 0.0,
              "invisible": true,
              "positions": [
                {
                  "t": 0.0,
                  "x": 0.9,
                  "y": 0.0
                }
              ],
              "radius": 0.3
            }
          ],
          "threshold": 1,
          "question": "q3"
        }
      },



      {
        "chapter": "3_white",
        "time": 35.0,
        "type": "Kick",
        "isTutorial": false,
        "isInstant": true,
        "isHideTimer": true,
        "isEnabledTimerInTutorial": false,
        "isDead": false,
        "id": 1000,
        "penalty": 0,
        "timeout": 1000.0,
        "isStartChainEvent": true,
        "isChainEvent": true,
        "isEndChainEvent": false,
        "chainEventsId": [
          1000,
          2000
        ],
        "data-mobile": {
          "deleteOnlyAfterInteraction": true,
          "objects": [
            {
              "nextChapterIndex": 1,
              "type": "hand",
              "timeShow": 0.0,
              "timeHide": 0.0,
              "invisible": true,
              "positions": [
                {
                  "t": 0.0,
                  "x": -0.8,
                  "y": 0.0
                }
              ],
              "radius": 0.3
            },
            {
              "nextChapterIndex": 2,
              "type": "hand",
              "timeShow": 0.0,
              "timeHide": 0.0,
              "invisible": true,
              "positions": [
                {
                  "t": 0.0,
                  "x": 0.0,
                  "y": 0.0
                }
              ],
              "radius": 0.3
            },
            {
              "nextChapterIndex": 3,
              "type": "hand",
              "timeShow": 0.0,
              "timeHide": 0.0,
              "invisible": true,
              "positions": [
                {
                  "t": 0.0,
                  "x": 0.9,
                  "y": 0.0
                }
              ],
              "radius": 0.3
            }
          ],
          "threshold": 1,
          "question": "q3"
        }
      },

      {
        "chapter": "abc_int_loop",
        "time": 0.0,
        "type": "Kick",
        "isTutorial": false,
        "isInstant": true,
        "isHideTimer": true,
        "isEnabledTimerInTutorial": false,
        "isDead": false,
        "id": 2000,
        "penalty": 0,
        "timeout": 1000.0,
        "isStartChainEvent": false,
        "isChainEvent": true,
        "isEndChainEvent": false,
        "chainEventsId": [
          1000,
          2000
        ],
        "data-mobile": {
          "deleteOnlyAfterInteraction": true,
          "objects": [
            {
              "nextChapterIndex": 1,
              "type": "hand",
              "timeShow": 0.0,
              "timeHide": 0.0,
              "invisible": true,
              "positions": [
                {
                  "t": 0.0,
                  "x": -0.8,
                  "y": 0.0
                }
              ],
              "radius": 0.3
            },
            {
              "nextChapterIndex": 2,
              "type": "hand",
              "timeShow": 0.0,
              "timeHide": 0.0,
              "invisible": true,
              "positions": [
                {
                  "t": 0.0,
                  "x": 0.0,
                  "y": 0.0
                }
              ],
              "radius": 0.3
            },
            {
              "nextChapterIndex": 3,
              "type": "hand",
              "timeShow": 0.0,
              "timeHide": 0.0,
              "invisible": true,
              "positions": [
                {
                  "t": 0.0,
                  "x": 0.9,
                  "y": 0.0
                }
              ],
              "radius": 0.3
            }
          ],
          "threshold": 1,
          "question": "q3"
        }
      },

      {
        "chapter": "a_int",
        "time": 4.0,
        "type": "Kick",
        "isTutorial": false,
        "isInstant": true,
        "isHideTimer": true,
        "isEnabledTimerInTutorial": false,
        "isDead": false,
        "id": 1,
        "penalty": 0,
        "timeout": 1000.0,
        "isStartChainEvent": true,
        "isChainEvent": true,
        "isEndChainEvent": false,
        "chainEventsId": [
          1,
          2
        ],
        "data-mobile": {
          "deleteOnlyAfterInteraction": true,
          "objects": [
            {
              "nextChapterIndex": 1,
              "type": "hand",
              "timeShow": 0.0,
              "timeHide": 0.0,
              "invisible": true,
              "positions": [
                {
                  "t": 0.0,
                  "x": 0.0,
                  "y": 0.0
                }
              ],
              "radius": 0.3
            },
            {
              "nextChapterIndex": 2,
              "type": "hand",
              "timeShow": 0.0,
              "timeHide": 0.0,
              "invisible": true,
              "positions": [
                {
                  "t": 0.0,
                  "x": 0.9,
                  "y": 0.0
                }
              ],
              "radius": 0.3
            }
          ],
          "threshold": 1,
          "question": "q3"
        }
      },
      {
        "chapter": "c_int",
        "time": 4.0,
        "type": "Kick",
        "isTutorial": false,
        "isInstant": true,
        "isHideTimer": true,
        "isEnabledTimerInTutorial": false,
        "isDead": false,
        "id": 1,
        "penalty": 0,
        "timeout": 1000.0,
        "isStartChainEvent": true,
        "isChainEvent": true,
        "isEndChainEvent": false,
        "chainEventsId": [
          1,
          2
        ],
        "data-mobile": {
          "deleteOnlyAfterInteraction": true,
          "objects": [
            {
              "nextChapterIndex": 1,
              "type": "hand",
              "timeShow": 0.0,
              "timeHide": 0.0,
              "invisible": true,
              "positions": [
                {
                  "t": 0.0,
                  "x": -0.8,
                  "y": 0.0
                }
              ],
              "radius": 0.3
            },
            {
              "nextChapterIndex": 2,
              "type": "hand",
              "timeShow": 0.0,
              "timeHide": 0.0,
              "invisible": true,
              "positions": [
                {
                  "t": 0.0,
                  "x": 0.0,
                  "y": 0.0
                }
              ],
              "radius": 0.3
            }
          ],
          "threshold": 1,
          "question": "q3"
        }
      },
      {
        "chapter": "b_int",
        "time": 4.0,
        "type": "Kick",
        "isTutorial": false,
        "isInstant": true,
        "isHideTimer": true,
        "isEnabledTimerInTutorial": false,
        "isDead": false,
        "id": 1,
        "penalty": 0,
        "timeout": 1000.0,
        "isStartChainEvent": true,
        "isChainEvent": true,
        "isEndChainEvent": false,
        "chainEventsId": [
          1,
          2
        ],
        "data-mobile": {
          "deleteOnlyAfterInteraction": true,
          "objects": [
            {
              "nextChapterIndex": 1,
              "type": "hand",
              "timeShow": 0.0,
              "timeHide": 0.0,
              "invisible": true,
              "positions": [
                {
                  "t": 0.0,
                  "x": -0.8,
                  "y": 0.0
                }
              ],
              "radius": 0.3
            },
            {
              "nextChapterIndex": 2,
              "type": "hand",
              "timeShow": 0.0,
              "timeHide": 0.0,
              "invisible": true,
              "positions": [
                {
                  "t": 0.0,
                  "x": 0.9,
                  "y": 0.0
                }
              ],
              "radius": 0.3
            }
          ],
          "threshold": 1,
          "question": "q3"
        }
      },

      {
        "chapter": "a_int_loop",
        "time": 0.0,
        "type": "Kick",
        "isTutorial": false,
        "isInstant": true,
        "isHideTimer": true,
        "isEnabledTimerInTutorial": false,
        "isDead": false,
        "id": 2,
        "penalty": 0,
        "timeout": 1000.0,
        "isStartChainEvent": false,
        "isChainEvent": true,
        "isEndChainEvent": false,
        "chainEventsId": [
          1,
          2
        ],
        "data-mobile": {
          "deleteOnlyAfterInteraction": true,
          "objects": [
            {
              "nextChapterIndex": 1,
              "type": "hand",
              "timeShow": 0.0,
              "timeHide": 0.0,
              "invisible": true,
              "positions": [
                {
                  "t": 0.0,
                  "x": 0.0,
                  "y": 0.0
                }
              ],
              "radius": 0.3
            },
            {
              "nextChapterIndex": 2,
              "type": "hand",
              "timeShow": 0.0,
              "timeHide": 0.0,
              "invisible": true,
              "positions": [
                {
                  "t": 0.0,
                  "x": 0.9,
                  "y": 0.0
                }
              ],
              "radius": 0.3
            }
          ],
          "threshold": 1,
          "question": "q3"
        }
      },
      {
        "chapter": "b_int_loop",
        "time": 0.0,
        "type": "Kick",
        "isTutorial": false,
        "isInstant": true,
        "isHideTimer": true,
        "isEnabledTimerInTutorial": false,
        "isDead": false,
        "id": 2,
        "penalty": 0,
        "timeout": 1000.0,
        "isStartChainEvent": false,
        "isChainEvent": true,
        "isEndChainEvent": false,
        "chainEventsId": [
          1,
          2
        ],
        "data-mobile": {
          "deleteOnlyAfterInteraction": true,
          "objects": [
            {
              "nextChapterIndex": 1,
              "type": "hand",
              "timeShow": 0.0,
              "timeHide": 0.0,
              "invisible": true,
              "positions": [
                {
                  "t": 0.0,
                  "x": -0.8,
                  "y": 0.0
                }
              ],
              "radius": 0.3
            },
            {
              "nextChapterIndex": 2,
              "type": "hand",
              "timeShow": 0.0,
              "timeHide": 0.0,
              "invisible": true,
              "positions": [
                {
                  "t": 0.0,
                  "x": 0.9,
                  "y": 0.0
                }
              ],
              "radius": 0.3
            }
          ],
          "threshold": 1,
          "question": "q3"
        }
      },
      {
        "chapter": "c_int_loop",
        "time": 0.0,
        "type": "Kick",
        "isTutorial": false,
        "isInstant": true,
        "isHideTimer": true,
        "isEnabledTimerInTutorial": false,
        "isDead": false,
        "id": 1,
        "penalty": 0,
        "timeout": 1000.0,
        "isStartChainEvent": true,
        "isChainEvent": true,
        "isEndChainEvent": false,
        "chainEventsId": [
          1,
          2
        ],
        "data-mobile": {
          "deleteOnlyAfterInteraction": true,
          "objects": [
            {
              "nextChapterIndex": 1,
              "type": "hand",
              "timeShow": 0.0,
              "timeHide": 0.0,
              "invisible": true,
              "positions": [
                {
                  "t": 0.0,
                  "x": -0.8,
                  "y": 0.0
                }
              ],
              "radius": 0.3
            },
            {
              "nextChapterIndex": 2,
              "type": "hand",
              "timeShow": 0.0,
              "timeHide": 0.0,
              "invisible": true,
              "positions": [
                {
                  "t": 0.0,
                  "x": 0.0,
                  "y": 0.0
                }
              ],
              "radius": 0.3
            }
          ],
          "threshold": 1,
          "question": "q3"
        }
      },









      {
        "chapter": "ab_int",
        "time": 4.0,
        "type": "Kick",
        "isTutorial": false,
        "isInstant": true,
        "isHideTimer": true,
        "isEnabledTimerInTutorial": false,
        "isDead": false,
        "id": 3,
        "penalty": 0,
        "timeout": 1000.0,
        "isStartChainEvent": true,
        "isChainEvent": true,
        "isEndChainEvent": false,
        "chainEventsId": [
          3,
          4
        ],
        "data-mobile": {
          "deleteOnlyAfterInteraction": true,
          "objects": [
            {
              "nextChapterIndex": 1,
              "type": "hand",
              "timeShow": 0.0,
              "timeHide": 0.0,
              "invisible": true,
              "positions": [
                {
                  "t": 0.0,
                  "x": 0.9,
                  "y": 0.0
                }
              ],
              "radius": 0.3
            }
          ],
          "threshold": 1,
          "question": "q3"
        }
      },
      {
        "chapter": "ac_int",
        "time": 4.0,
        "type": "Kick",
        "isTutorial": false,
        "isInstant": true,
        "isHideTimer": true,
        "isEnabledTimerInTutorial": false,
        "isDead": false,
        "id": 3,
        "penalty": 0,
        "timeout": 1000.0,
        "isStartChainEvent": true,
        "isChainEvent": true,
        "isEndChainEvent": false,
        "chainEventsId": [
          3,
          4
        ],
        "data-mobile": {
          "deleteOnlyAfterInteraction": true,
          "objects": [
            {
              "nextChapterIndex": 1,
              "type": "hand",
              "timeShow": 0.0,
              "timeHide": 0.0,
              "invisible": true,
              "positions": [
                {
                  "t": 0.0,
                  "x": 0.0,
                  "y": 0.0
                }
              ],
              "radius": 0.3
            }
          ],
          "threshold": 1,
          "question": "q3"
        }
      },
      {
        "chapter": "ab_int_loop",
        "time": 0.0,
        "type": "Kick",
        "isTutorial": false,
        "isInstant": true,
        "isHideTimer": true,
        "isEnabledTimerInTutorial": false,
        "isDead": false,
        "id": 4,
        "penalty": 0,
        "timeout": 1000.0,
        "isStartChainEvent": false,
        "isChainEvent": true,
        "isEndChainEvent": false,
        "chainEventsId": [
          3,
          4
        ],
        "data-mobile": {
          "deleteOnlyAfterInteraction": true,
          "objects": [
            {
              "nextChapterIndex": 1,
              "type": "hand",
              "timeShow": 0.0,
              "timeHide": 0.0,
              "invisible": true,
              "positions": [
                {
                  "t": 0.0,
                  "x": 0.9,
                  "y": 0.0
                }
              ],
              "radius": 0.3
            }
          ],
          "threshold": 1,
          "question": "q3"
        }
      },
      {
        "chapter": "ac_int_loop",
        "time": 0.0,
        "type": "Kick",
        "isTutorial": false,
        "isInstant": true,
        "isHideTimer": true,
        "isEnabledTimerInTutorial": false,
        "isDead": false,
        "id": 3,
        "penalty": 0,
        "timeout": 1000.0,
        "isStartChainEvent": false,
        "isChainEvent": true,
        "isEndChainEvent": false,
        "chainEventsId": [
          3,
          4
        ],
        "data-mobile": {
          "deleteOnlyAfterInteraction": true,
          "objects": [
            {
              "nextChapterIndex": 1,
              "type": "hand",
              "timeShow": 0.0,
              "timeHide": 0.0,
              "invisible": true,
              "positions": [
                {
                  "t": 0.0,
                  "x": 0.0,
                  "y": 0.0
                }
              ],
              "radius": 0.3
            }
          ],
          "threshold": 1,
          "question": "q3"
        }
      },


      {
        "chapter": "ba_int",
        "time": 4.0,
        "type": "Kick",
        "isTutorial": false,
        "isInstant": true,
        "isHideTimer": true,
        "isEnabledTimerInTutorial": false,
        "isDead": false,
        "id": 3,
        "penalty": 0,
        "timeout": 1000.0,
        "isStartChainEvent": true,
        "isChainEvent": true,
        "isEndChainEvent": false,
        "chainEventsId": [
          3,
          4
        ],
        "data-mobile": {
          "deleteOnlyAfterInteraction": true,
          "objects": [
            {
              "nextChapterIndex": 1,
              "type": "hand",
              "timeShow": 0.0,
              "timeHide": 0.0,
              "invisible": true,
              "positions": [
                {
                  "t": 0.0,
                  "x": 0.9,
                  "y": 0.0
                }
              ],
              "radius": 0.3
            }
          ],
          "threshold": 1,
          "question": "q3"
        }
      },
      {
        "chapter": "ba_int_loop",
        "time": 0.0,
        "type": "Kick",
        "isTutorial": false,
        "isInstant": true,
        "isHideTimer": true,
        "isEnabledTimerInTutorial": false,
        "isDead": false,
        "id": 4,
        "penalty": 0,
        "timeout": 1000.0,
        "isStartChainEvent": true,
        "isChainEvent": true,
        "isEndChainEvent": false,
        "chainEventsId": [
          3,
          4
        ],
        "data-mobile": {
          "deleteOnlyAfterInteraction": true,
          "objects": [
            {
              "nextChapterIndex": 1,
              "type": "hand",
              "timeShow": 0.0,
              "timeHide": 0.0,
              "invisible": true,
              "positions": [
                {
                  "t": 0.0,
                  "x": 0.9,
                  "y": 0.0
                }
              ],
              "radius": 0.3
            }
          ],
          "threshold": 1,
          "question": "q3"
        }
      },
      {
        "chapter": "bc_int",
        "time": 4.0,
        "type": "Kick",
        "isTutorial": false,
        "isInstant": true,
        "isHideTimer": true,
        "isEnabledTimerInTutorial": false,
        "isDead": false,
        "id": 3,
        "penalty": 0,
        "timeout": 1000.0,
        "isStartChainEvent": true,
        "isChainEvent": true,
        "isEndChainEvent": false,
        "chainEventsId": [
          3,
          4
        ],
        "data-mobile": {
          "deleteOnlyAfterInteraction": true,
          "objects": [
            {
              "nextChapterIndex": 1,
              "type": "hand",
              "timeShow": 0.0,
              "timeHide": 0.0,
              "invisible": true,
              "positions": [
                {
                  "t": 0.0,
                  "x": -0.8,
                  "y": 0.0
                }
              ],
              "radius": 0.3
            }
          ],
          "threshold": 1,
          "question": "q3"
        }
      },
      {
        "chapter": "bc_int_loop",
        "time": 0.0,
        "type": "Kick",
        "isTutorial": false,
        "isInstant": true,
        "isHideTimer": true,
        "isEnabledTimerInTutorial": false,
        "isDead": false,
        "id": 4,
        "penalty": 0,
        "timeout": 1000.0,
        "isStartChainEvent": false,
        "isChainEvent": true,
        "isEndChainEvent": false,
        "chainEventsId": [
          3,
          4
        ],
        "data-mobile": {
          "deleteOnlyAfterInteraction": true,
          "objects": [
            {
              "nextChapterIndex": 1,
              "type": "hand",
              "timeShow": 0.0,
              "timeHide": 0.0,
              "invisible": true,
              "positions": [
                {
                  "t": 0.0,
                  "x": -0.8,
                  "y": 0.0
                }
              ],
              "radius": 0.3
            }
          ],
          "threshold": 1,
          "question": "q3"
        }
      },







      {
        "chapter": "ca_int",
        "time": 4.0,
        "type": "Kick",
        "isTutorial": false,
        "isInstant": true,
        "isHideTimer": true,
        "isEnabledTimerInTutorial": false,
        "isDead": false,
        "id": 3,
        "penalty": 0,
        "timeout": 1000.0,
        "isStartChainEvent": true,
        "isChainEvent": true,
        "isEndChainEvent": false,
        "chainEventsId": [
          3,
          4
        ],
        "data-mobile": {
          "deleteOnlyAfterInteraction": true,
          "objects": [
            {
              "nextChapterIndex": 1,
              "type": "hand",
              "timeShow": 0.0,
              "timeHide": 0.0,
              "invisible": true,
              "positions": [
                {
                  "t": 0.0,
                  "x": 0.0,
                  "y": 0.0
                }
              ],
              "radius": 0.3
            }
          ],
          "threshold": 1,
          "question": "q3"
        }
      },
      {
        "chapter": "ca_int_loop",
        "time": 0.0,
        "type": "Kick",
        "isTutorial": false,
        "isInstant": true,
        "isHideTimer": true,
        "isEnabledTimerInTutorial": false,
        "isDead": false,
        "id": 4,
        "penalty": 0,
        "timeout": 1000.0,
        "isStartChainEvent": true,
        "isChainEvent": true,
        "isEndChainEvent": false,
        "chainEventsId": [
          3,
          4
        ],
        "data-mobile": {
          "deleteOnlyAfterInteraction": true,
          "objects": [
            {
              "nextChapterIndex": 1,
              "type": "hand",
              "timeShow": 0.0,
              "timeHide": 0.0,
              "invisible": true,
              "positions": [
                {
                  "t": 0.0,
                  "x": 0.0,
                  "y": 0.0
                }
              ],
              "radius": 0.3
            }
          ],
          "threshold": 1,
          "question": "q3"
        }
      },
      {
        "chapter": "cb_int",
        "time": 4.0,
        "type": "Kick",
        "isTutorial": false,
        "isInstant": true,
        "isHideTimer": true,
        "isEnabledTimerInTutorial": false,
        "isDead": false,
        "id": 3,
        "penalty": 0,
        "timeout": 1000.0,
        "isStartChainEvent": true,
        "isChainEvent": true,
        "isEndChainEvent": false,
        "chainEventsId": [
          3,
          4
        ],
        "data-mobile": {
          "deleteOnlyAfterInteraction": true,
          "objects": [
            {
              "nextChapterIndex": 1,
              "type": "hand",
              "timeShow": 0.0,
              "timeHide": 0.0,
              "invisible": true,
              "positions": [
                {
                  "t": 0.0,
                  "x": -0.8,
                  "y": 0.0
                }
              ],
              "radius": 0.3
            }
          ],
          "threshold": 1,
          "question": "q3"
        }
      },
      {
        "chapter": "cb_int_loop",
        "time": 0.0,
        "type": "Kick",
        "isTutorial": false,
        "isInstant": true,
        "isHideTimer": true,
        "isEnabledTimerInTutorial": false,
        "isDead": false,
        "id": 4,
        "penalty": 0,
        "timeout": 1000.0,
        "isStartChainEvent": true,
        "isChainEvent": true,
        "isEndChainEvent": false,
        "chainEventsId": [
          3,
          4
        ],
        "data-mobile": {
          "deleteOnlyAfterInteraction": true,
          "objects": [
            {
              "nextChapterIndex": 1,
              "type": "hand",
              "timeShow": 0.0,
              "timeHide": 0.0,
              "invisible": true,
              "positions": [
                {
                  "t": 0.0,
                  "x": -0.8,
                  "y": 0.0
                }
              ],
              "radius": 0.3
            }
          ],
          "threshold": 1,
          "question": "q3"
        }
      },








      {
        "chapter": "abc_int_zagadka",
        "time": 11.0,
        "type": "PhoneInput",
        "isTutorial": false,
        "isInstant": true,
        "isEnabledTimerInTutorial": false,
        "isDead": false,
        "id": 7,
        "penalty": 0,
        "timeout": 10000,
        "isStartChainEvent": true,
        "isChainEvent": true,
        "isEndChainEvent": false,
        "chainEventsId": [
          7,
          8,
          9
        ],
        "data-mobile": {
          "deleteOnlyAfterInteraction": true,
          "incorrectSize": 12,
          "specialNumbers": [
          	"01","02","03","04","101","102","103","104","112","115","911"
		      ],
          "specialNumberChapterIndex":3,
          "phoneNumber": "25646363593"
        },
        "data-webgl": {
        }
      },

      {
        "chapter": "acb_int_zagadka",
        "time": 11.0,
        "type": "PhoneInput",
        "isTutorial": false,
        "isInstant": true,
        "isEnabledTimerInTutorial": false,
        "isDead": false,
        "id": 7,
        "penalty": 0,
        "timeout": 10000,
        "isStartChainEvent": true,
        "isChainEvent": true,
        "isEndChainEvent": false,
        "chainEventsId": [
          7,
          8,
          9
        ],
        "data-mobile": {
          "deleteOnlyAfterInteraction": true,
          "incorrectSize": 12,
          "specialNumbers": [
          	"01","02","03","04","101","102","103","104","112","115","911"
		      ],
          "specialNumberChapterIndex":3,
          "phoneNumber": "25646363593"
        },
        "data-webgl": {
        }
      },

      {
        "chapter": "bac_int_zagadka",
        "time": 11.0,
        "type": "PhoneInput",
        "isTutorial": false,
        "isInstant": true,
        "isEnabledTimerInTutorial": false,
        "isDead": false,
        "id": 7,
        "penalty": 0,
        "timeout": 10000,
        "isStartChainEvent": true,
        "isChainEvent": true,
        "isEndChainEvent": false,
        "chainEventsId": [
          7,
          8,
          9
        ],
        "data-mobile": {
          "deleteOnlyAfterInteraction": true,
          "incorrectSize": 12,
          "specialNumbers": [
          	"01","02","03","04","101","102","103","104","112","115","911"
		      ],
          "specialNumberChapterIndex": 3,
          "phoneNumber": "25646363593"
        },
        "data-webgl": {
        }
      },
      {
        "chapter": "bca_int_zagadka",
        "time": 11.0,
        "type": "PhoneInput",
        "isTutorial": false,
        "isInstant": true,
        "isEnabledTimerInTutorial": false,
        "isDead": false,
        "id": 7,
        "penalty": 0,
        "timeout": 10000,
        "isStartChainEvent": true,
        "isChainEvent": true,
        "isEndChainEvent": false,
        "chainEventsId": [
          7,
          8,
          9
        ],
        "data-mobile": {
          "deleteOnlyAfterInteraction": true,
          "incorrectSize": 12,
          "specialNumbers": [
          	"01","02","03","04","101","102","103","104","112","115","911"
		      ],
          "specialNumberChapterIndex": 3,
          "phoneNumber": "25646363593"
        },
        "data-webgl": {
        }
      },
      {
        "chapter": "cab_int_zagadka",
        "time": 11.0,
        "type": "PhoneInput",
        "isTutorial": false,
        "isInstant": true,
        "isEnabledTimerInTutorial": false,
        "isDead": false,
        "id": 7,
        "penalty": 0,
        "timeout": 10000,
        "isStartChainEvent": true,
        "isChainEvent": true,
        "isEndChainEvent": false,
        "chainEventsId": [
          7,
          8,
          9
        ],
        "data-mobile": {
          "deleteOnlyAfterInteraction": true,
          "incorrectSize": 12,
          "specialNumbers": [
          	"01","02","03","04","101","102","103","104","112","115","911"
		      ],
          "specialNumberChapterIndex": 3,
          "phoneNumber": "25646363593"
        },
        "data-webgl": {
        }
      },
      {
        "chapter": "cba_int_zagadka",
        "time": 11.0,
        "type": "PhoneInput",
        "isTutorial": false,
        "isInstant": true,
        "isEnabledTimerInTutorial": false,
        "isDead": false,
        "id": 7,
        "penalty": 0,
        "timeout": 10000,
        "isStartChainEvent": true,
        "isChainEvent": true,
        "isEndChainEvent": false,
        "chainEventsId": [
          7,
          8,
          9
        ],
        "data-mobile": {
          "deleteOnlyAfterInteraction": true,
          "incorrectSize": 12,
          "specialNumbers": [
          	"01","02","03","04","101","102","103","104","112","115","911"
		      ],
          "specialNumberChapterIndex": 3,
          "phoneNumber": "25646363593"
        },
        "data-webgl": {
        }
      },


      {
        "chapter": "4_4_int_zag_7sec_loop",
        "time": 0.0,
        "type": "PhoneInput",
        "isTutorial": false,
        "isInstant": true,
        "isEnabledTimerInTutorial": false,
        "isDead": false,
        "id": 8,
        "penalty": 0,
        "timeout": 10000,
        "isStartChainEvent": false,
        "isChainEvent": true,
        "isEndChainEvent": false,
        "chainEventsId": [
          7,
          8,
          9
        ],
        "data-mobile": {
          "deleteOnlyAfterInteraction": true,
          "incorrectSize": 12,
          "specialNumbers": [
          	"01","02","03","04","101","102","103","104","112","115","911"
		      ],
          "specialNumberChapterIndex": 3,
          "phoneNumber": "25646363593"
        },
        "data-webgl": {
        }
      },
      {
        "chapter": "4_4_int_zag_7sec_loop_2",
        "time": 1.0,
        "type": "PhoneInput",
        "isTutorial": false,
        "isInstant": true,
        "isEnabledTimerInTutorial": false,
        "isDead": false,
        "id": 7,
        "penalty": 0,
        "timeout": 10000,
        "isStartChainEvent": true,
        "isChainEvent": true,
        "isEndChainEvent": false,
        "chainEventsId": [
          7,
          8,
          9
        ],
        "data-mobile": {
          "deleteOnlyAfterInteraction": true,
          "incorrectSize": 12,
          "specialNumbers": [
          	"01","02","03","04","101","102","103","104","112","115","911"
		      ],
          "specialNumberChapterIndex": 3,
          "phoneNumber": "25646363593"
        },
        "data-webgl": {
        }
      },
      {
        "chapter": "2",
        "time": 244.0,
        "type": "Choice",
        "isTutorial": false,
        "isInstant": true,
        "isEnabledTimerInTutorial": false,
        "isDead": false,
        "id": 10,
        "penalty": 0,
        "timeout": 1000.0,
        "isStartChainEvent": true,
        "isChainEvent": true,
        "isEndChainEvent": false,
        "chainEventsId": [
          10,
          11
        ],
        "data-mobile": {
          "deleteOnlyAfterInteraction": true,
          "question": "q1",
          "variants": [
            "a1",
            "a2"
          ]
        },
        "data-webgl": {
        }
      },
      {
        "chapter": "2_int",
        "time": 0.0,
        "type": "Choice",
        "isTutorial": false,
        "isInstant": true,
        "isEnabledTimerInTutorial": false,
        "isDead": false,
        "id": 11,
        "penalty": 0,
        "timeout": 1000.0,
        "isStartChainEvent": false,
        "isChainEvent": true,
        "isEndChainEvent": false,
        "chainEventsId": [
          10,
          11
        ],
        "data-mobile": {
          "deleteOnlyAfterInteraction": true,
          "question": "q1",
          "variants": [
            "a1",
            "a2"
          ]
        },
        "data-webgl": {
        }
      },
      {
        "chapter": "2_no",
        "time": 57.0,
        "type": "Kick",
        "isTutorial": false,
        "isInstant": true,
        "isHideTimer": true,
        "isEnabledTimerInTutorial": false,
        "isDead": false,
        "id": 120,
        "penalty": 0,
        "timeout": 1000.0,
        "isStartChainEvent": true,
        "isChainEvent": true,
        "isEndChainEvent": true,
        "chainEventsId": [
          120,
          121
        ],
        "data-mobile": {
          "deleteOnlyAfterInteraction": true,
          "objects": [
            {
              "nextChapterIndex": 2,
              "type": "hand",
              "timeShow": 0.0,
              "timeHide": 0.0,
              "invisible": true,
              "positions": [
                {
                  "t": 0.0,
                  "x": 0.0,
                  "y": 0.0
                }
              ],
              "radius": 5.0
            },
            {
              "nextChapterIndex": 1,
              "type": "hand",
              "timeShow": 0.0,
              "timeHide": 0.0,
              "invisible": true,
              "positions": [
                {
                  "t": 0.0,
                  "x": 0.03,
                  "y": 0.0
                }
              ],
              "radius": 0.13
            },
            {
              "nextChapterIndex": 1,
              "type": "hand",
              "timeShow": 0.0,
              "timeHide": 0.0,
              "invisible": true,
              "positions": [
                {
                  "t": 0.0,
                  "x": 0.44,
                  "y": 0.1
                }
              ],
              "radius": 0.15
            },
            {
              "nextChapterIndex": 1,
              "type": "hand",
              "timeShow": 0.0,
              "timeHide": 0.0,
              "invisible": true,
              "positions": [
                {
                  "t": 0.0,
                  "x": 0.4,
                  "y": 0.7
                }
              ],
              "radius": 0.18
            },
            {
              "nextChapterIndex": 1,
              "type": "hand",
              "timeShow": 0.0,
              "timeHide": 0.0,
              "invisible": true,
              "positions": [
                {
                  "t": 0.0,
                  "x": 1.0,
                  "y": 0.5
                }
              ],
              "radius": 0.2
            },

            {
              "nextChapterIndex": 1,
              "type": "hand",
              "timeShow": 0.0,
              "timeHide": 0.0,
              "invisible": true,
              "positions": [
                {
                  "t": 0.0,
                  "x": 0.8,
                  "y": -0.7
                }
              ],
              "radius": 0.13
            },

            {
              "nextChapterIndex": 1,
              "type": "hand",
              "timeShow": 0.0,
              "timeHide": 0.0,
              "invisible": true,
              "positions": [
                {
                  "t": 0.0,
                  "x": -0.4,
                  "y": 0.3
                }
              ],
              "radius": 0.12
            },


            {
              "nextChapterIndex": 1,
              "type": "hand",
              "timeShow": 0.0,
              "timeHide": 0.0,
              "invisible": true,
              "positions": [
                {
                  "t": 0.0,
                  "x": -0.16,
                  "y": 0.78
                }
              ],
              "radius": 0.1
            },

            {
              "nextChapterIndex": 1,
              "type": "hand",
              "timeShow": 0.0,
              "timeHide": 0.0,
              "invisible": true,
              "positions": [
                {
                  "t": 0.0,
                  "x": -1.0,
                  "y": 0.8
                }
              ],
              "radius": 0.3
            }
          ],
          "threshold": 1,
          "question": "q3"
        }
      },
      {
        "chapter": "2_yes",
        "time": 57.0,
        "type": "Kick",
        "isTutorial": false,
        "isInstant": true,
        "isHideTimer": true,
        "isEnabledTimerInTutorial": false,
        "isDead": false,
        "id": 120,
        "penalty": 0,
        "timeout": 1000.0,
        "isStartChainEvent": true,
        "isChainEvent": true,
        "isEndChainEvent": true,
        "chainEventsId": [
          120,
          121
        ],
        "data-mobile": {
          "deleteOnlyAfterInteraction": true,
          "objects": [
            {
              "nextChapterIndex": 2,
              "type": "hand",
              "timeShow": 0.0,
              "timeHide": 0.0,
              "invisible": true,
              "positions": [
                {
                  "t": 0.0,
                  "x": 0.0,
                  "y": 0.0
                }
              ],
              "radius": 5.0
            },
            {
              "nextChapterIndex": 1,
              "type": "hand",
              "timeShow": 0.0,
              "timeHide": 0.0,
              "invisible": true,
              "positions": [
                {
                  "t": 0.0,
                  "x": 0.03,
                  "y": 0.0
                }
              ],
              "radius": 0.13
            },
            {
              "nextChapterIndex": 1,
              "type": "hand",
              "timeShow": 0.0,
              "timeHide": 0.0,
              "invisible": true,
              "positions": [
                {
                  "t": 0.0,
                  "x": 0.44,
                  "y": 0.1
                }
              ],
              "radius": 0.15
            },
            {
              "nextChapterIndex": 1,
              "type": "hand",
              "timeShow": 0.0,
              "timeHide": 0.0,
              "invisible": true,
              "positions": [
                {
                  "t": 0.0,
                  "x": 0.4,
                  "y": 0.7
                }
              ],
              "radius": 0.18
            },
            {
              "nextChapterIndex": 1,
              "type": "hand",
              "timeShow": 0.0,
              "timeHide": 0.0,
              "invisible": true,
              "positions": [
                {
                  "t": 0.0,
                  "x": 1.0,
                  "y": 0.5
                }
              ],
              "radius": 0.2
            },

            {
              "nextChapterIndex": 1,
              "type": "hand",
              "timeShow": 0.0,
              "timeHide": 0.0,
              "invisible": true,
              "positions": [
                {
                  "t": 0.0,
                  "x": 0.8,
                  "y": -0.7
                }
              ],
              "radius": 0.13
            },

            {
              "nextChapterIndex": 1,
              "type": "hand",
              "timeShow": 0.0,
              "timeHide": 0.0,
              "invisible": true,
              "positions": [
                {
                  "t": 0.0,
                  "x": -0.4,
                  "y": 0.3
                }
              ],
              "radius": 0.12
            },


            {
              "nextChapterIndex": 1,
              "type": "hand",
              "timeShow": 0.0,
              "timeHide": 0.0,
              "invisible": true,
              "positions": [
                {
                  "t": 0.0,
                  "x": -0.16,
                  "y": 0.78
                }
              ],
              "radius": 0.1
            },

            {
              "nextChapterIndex": 1,
              "type": "hand",
              "timeShow": 0.0,
              "timeHide": 0.0,
              "invisible": true,
              "positions": [
                {
                  "t": 0.0,
                  "x": -1.0,
                  "y": 0.8
                }
              ],
              "radius": 0.3
            }
          ],
          "threshold": 1,
          "question": "q3"
        }
      },
      {
        "chapter": "3_int",
        "time": 0.0,
        "type": "Kick",
        "isTutorial": false,
        "isInstant": true,
        "isHideTimer": true,
        "isEnabledTimerInTutorial": false,
        "isDead": false,
        "id": 121,
        "penalty": 0,
        "timeout": 1000.0,
        "isStartChainEvent": false,
        "isChainEvent": true,
        "isEndChainEvent": true,
        "chainEventsId": [
          120,
          121
        ],
        "data-mobile": {
          "deleteOnlyAfterInteraction": true,
          "objects": [
            {
              "nextChapterIndex": 2,
              "type": "hand",
              "timeShow": 0.0,
              "timeHide": 0.0,
              "invisible": true,
              "positions": [
                {
                  "t": 0.0,
                  "x": 0.0,
                  "y": 0.0
                }
              ],
              "radius": 5.0
            },
            {
              "nextChapterIndex": 1,
              "type": "hand",
              "timeShow": 0.0,
              "timeHide": 0.0,
              "invisible": true,
              "positions": [
                {
                  "t": 0.0,
                  "x": 0.03,
                  "y": 0.0
                }
              ],
              "radius": 0.13
            },
            {
              "nextChapterIndex": 1,
              "type": "hand",
              "timeShow": 0.0,
              "timeHide": 0.0,
              "invisible": true,
              "positions": [
                {
                  "t": 0.0,
                  "x": 0.44,
                  "y": 0.1
                }
              ],
              "radius": 0.15
            },
            {
              "nextChapterIndex": 1,
              "type": "hand",
              "timeShow": 0.0,
              "timeHide": 0.0,
              "invisible": true,
              "positions": [
                {
                  "t": 0.0,
                  "x": 0.4,
                  "y": 0.7
                }
              ],
              "radius": 0.18
            },
            {
              "nextChapterIndex": 1,
              "type": "hand",
              "timeShow": 0.0,
              "timeHide": 0.0,
              "invisible": true,
              "positions": [
                {
                  "t": 0.0,
                  "x": 1.0,
                  "y": 0.5
                }
              ],
              "radius": 0.2
            },

            {
              "nextChapterIndex": 1,
              "type": "hand",
              "timeShow": 0.0,
              "timeHide": 0.0,
              "invisible": true,
              "positions": [
                {
                  "t": 0.0,
                  "x": 0.8,
                  "y": -0.7
                }
              ],
              "radius": 0.13
            },

            {
              "nextChapterIndex": 1,
              "type": "hand",
              "timeShow": 0.0,
              "timeHide": 0.0,
              "invisible": true,
              "positions": [
                {
                  "t": 0.0,
                  "x": -0.4,
                  "y": 0.3
                }
              ],
              "radius": 0.12
            },


            {
              "nextChapterIndex": 1,
              "type": "hand",
              "timeShow": 0.0,
              "timeHide": 0.0,
              "invisible": true,
              "positions": [
                {
                  "t": 0.0,
                  "x": -0.16,
                  "y": 0.78
                }
              ],
              "radius": 0.1
            },

            {
              "nextChapterIndex": 1,
              "type": "hand",
              "timeShow": 0.0,
              "timeHide": 0.0,
              "invisible": true,
              "positions": [
                {
                  "t": 0.0,
                  "x": -1.0,
                  "y": 0.8
                }
              ],
              "radius": 0.3
            }
          ],
          "threshold": 1,
          "question": "q3"
        }
      },
      {
        "chapter": "5",
        "time": 568.0,
        "type": "Choice",
        "isTutorial": false,
        "isInstant": true,
        "isEnabledTimerInTutorial": false,
        "isDead": false,
        "id": 13,
        "penalty": 0,
        "timeout": 11.0,
        "isStartChainEvent": true,
        "isChainEvent": true,
        "isEndChainEvent": false,
        "chainEventsId": [
          13,
          14
        ],
        "data-mobile": {
          "nextChapterIndexOnTimeout": 2,
          "question": "q1",
          "variants": [
            "a1",
            "a2"
          ]
        },
        "data-webgl": {
        }
      },
      {
        "chapter": "6_short",
        "time": 0.0,
        "type": "Choice",
        "isTutorial": false,
        "isInstant": true,
        "isEnabledTimerInTutorial": false,
        "isDead": false,
        "id": 14,
        "penalty": 0,
        "timeout": 12.0,
        "isStartChainEvent": false,
        "isChainEvent": true,
        "isEndChainEvent": true,
        "chainEventsId": [
          13,
          14
        ],
        "data-mobile": {
          "nextChapterIndexOnTimeout": 2,
          "question": "q1",
          "variants": [
            "a1",
            "a2"
          ]
        },
        "data-webgl": {
        }
      },
      {
        "chapter": "6_call",
        "time": 13.0,
        "type": "Choice",
        "isTutorial": false,
        "isInstant": true,
        "isEnabledTimerInTutorial": false,
        "isDead": false,
        "id": 13,
        "penalty": 0,
        "timeout": 12.0,
        "isStartChainEvent": true,
        "isChainEvent": true,
        "isEndChainEvent": false,
        "chainEventsId": [
          13,
          14
        ],
        "data-mobile": {
          "nextChapterIndexOnTimeout": 2,
          "question": "q1",
          "variants": [
            "a1",
            "a2"
          ]
        },
        "data-webgl": {
        }
      },
      {
        "chapter": "6_2",
        "time": 30.5,
        "type": "Choice",
        "isTutorial": false,
        "isInstant": true,
        "isEnabledTimerInTutorial": false,
        "isDead": false,
        "id": 15,
        "penalty": 0,
        "timeout": 12.0,
        "isStartChainEvent": true,
        "isChainEvent": true,
        "isEndChainEvent": false,
        "chainEventsId": [
          15,
          14
        ],
        "data-mobile": {
          "nextChapterIndexOnTimeout": 2,
          "question": "q1",
          "variants": [
            "a1",
            "a2"
          ]
        },
        "data-webgl": {
        }
      },
      {
        "chapter": "6_1",
        "time": 183.0,
        "type": "Choice",
        "isTutorial": false,
        "isInstant": true,
        "isEnabledTimerInTutorial": false,
        "isDead": false,
        "id": 16,
        "penalty": 0,
        "timeout": 1000.0,
        "isStartChainEvent": true,
        "isChainEvent": true,
        "isEndChainEvent": true,
        "chainEventsId": [
          16,
          14
        ],
        "data-mobile": {
          "deleteOnlyAfterInteraction": true,
          "question": "q1",
          "variants": [
            "a3",
            "a4"
          ]
        },
        "data-webgl": {
        }
      },
      {
        "chapter": "7_short",
        "time": 0.0,
        "type": "Choice",
        "isTutorial": false,
        "isInstant": true,
        "isEnabledTimerInTutorial": false,
        "isDead": false,
        "id": 17,
        "penalty": 0,
        "timeout": 1000.0,
        "isStartChainEvent": false,
        "isChainEvent": true,
        "isEndChainEvent": true,
        "chainEventsId": [
          16,
          17
        ],
        "data-mobile": {
          "deleteOnlyAfterInteraction": true,
          "question": "q1",
          "variants": [
            "a3",
            "a4"
          ]
        },
        "data-webgl": {
        }
      },
      {
        "chapter": "7_1",
        "time": 5.00,
        "type": "TextInput",
        "isTutorial": false,
        "isEnabledTimerInTutorial": false,
        "isDead": false,
        "id": 1000,
        "penalty": 0,
        "timeout": 10000,
        "data-mobile": {
          "question": "q2",
          "attemptsNumber": 3,
          "answerVariants": [
            "killer",
            "killer2",
            "killer3",
            "killer4"
          ]
        },
        "data-webgl": {
        }
      }
    ],
    "achievements": [
    ],
    "save-points": [
      {
        "chapter": "1",
        "time": 45.0
      },
      {
        "chapter": "3_red",
        "time": 28.0
      },
      {
        "chapter": "3_white",
        "time": 28.0
      },
      {
        "chapter": "2_no",
        "time": 55.0
      },
      {
        "chapter": "2_yes",
        "time": 55.0
      },
      {
        "chapter": "5",
        "time": 1.0
      },
      {
        "chapter": "6_2",
        "time": 26.0
      },
      {
        "chapter": " 6_1",
        "time": 160.0
      }
    ],
    "localizations": [
        {
            "lang": "ru",
            "data": [
                {
                    "key": "q1",
                    "value": "Ваш выбор?"
                },
                {
                    "key": "q2",
                    "value": "Кто убийца?"
                },
                {
                    "key": "q3",
                    "value": "Выберите шар"
                },
                {
                    "key": "a1",
                    "value": "Да"
                },
                {
                    "key": "a2",
                    "value": "Нет"
                },
                {
                    "key": "a3",
                    "value": "Помочь"
                },
                {
                    "key": "a4",
                    "value": "Не помогать"
                },
                {
                    "key": "a5",
                    "value": "OK"
                },
                {
                    "key": "killer",
                    "value": "Шон"
                },
                {
                    "key": "killer2",
                    "value": "гейтс"
                },
                {
                    "key": "killer3",
                    "value": "швейцар"
                },
                {
                    "key": "killer4",
                    "value": "портье"
                }
            ]
        }    
    ]
  }
}
