{
  "game": {
    "name": "mamba",
    "showStatistics": false,
    "friendlyGame": true,
    "showPoints": false,
    "resizeAspect": true,
    "chapters": [
      {
        "id": "base_1",
        "deadNode": "",
        "next": [
          "base_2"
        ]
      },
      {
        "id": "base_2",
        "deadNode": "",
        "next": [
          "sister",
          "mother",
          "friend"
        ]
      },

      {
        "id": "sister",
        "deadNode": "",
        "next": []
      },
      {
        "id": "mother",
        "deadNode": "",
        "next": ["base_2", "no"]
      },
      {
        "id": "friend",
        "deadNode": "",
        "next": ["base_2", "no"]
      },
      {
        "id": "no",
        "deadNode": "",
        "next": [""]
      }
    ],
    "events": [
      {
        "chapter": "base_2",
        "time": 8.0,
        "type": "Choice",
        "isTutorial": true,
        "isInstant": false,
        "isSoftInstant": false,
        "isEnabledTimerInTutorial": false,
        "isDead": false,
        "id": 0,
        "penalty": 0,
        "timeout": 1000,
        "data-mobile": {
          "question": "",
          "variants": [
            "Написать с ошибками",
            "Ничего не писать",
            "Отправить сонет"
          ]
        }
      },

      {
        "chapter": "mother",
        "time": 15.0,
        "type": "Choice",
        "isTutorial": true,
        "isInstant": false,
        "isSoftInstant": false,
        "isEnabledTimerInTutorial": false,
        "isDead": false,
        "id": 0,
        "penalty": 0,
        "timeout": 1000,
        "data-mobile": {
          "question": "Попробуем иначе?",
          "variants": [
            "Попробовать",
            "Выйти"
          ]
        }
      },
      {
        "chapter": "friend",
        "time": 11.0,
        "type": "Choice",
        "isTutorial": true,
        "isInstant": false,
        "isSoftInstant": false,
        "isEnabledTimerInTutorial": false,
        "isDead": false,
        "id": 0,
        "penalty": 0,
        "timeout": 1000,
        "data-mobile": {
          "question": "Попробуем иначе?",
          "variants": [
            "Попробовать",
            "Выйти"
          ]
        }
      }
    ],
    "save-points": [],
    "characters": [],
    "objects": [],
    "avatars": [],
    "assets": [],
    "achievements": []
  }
}
