{
  "game": {
    "name": "HappyBirthdayDima",
    "showStatistics": false,
    "friendlyGame": true,
    "showPoints": false,
    "chapters": [
      {
        "id": "Intro_Fanis_Aleksandr",
        "deadNode": "",
        "next": [
          "Interactiv_Ilsur_M"
        ]
      },


      {
        "id": "Interactiv_Ilsur_M",
        "deadNode": "",
        "next": [
          "Znacomstvo_Ilsur_M",
          "Smeshnaya_istoria_Ilsur_M",
          "Secret_Ilsur_M",
          "Pervoe_vpechatlenie_Ilsur_M",
          "Budushee_Ilsur_M"
        ]
      },

      {
        "id": "Znacomstvo_Ilsur_M",
        "deadNode": "",
        "next": [
          "Interactiv_Nikolay_V_K"
        ]
      },
      {
        "id": "Smeshnaya_istoria_Ilsur_M",
        "deadNode": "",
        "next": [
          "Interactiv_Nikolay_V_K"
        ]
      },
      {
        "id": "Secret_Ilsur_M",
        "deadNode": "",
        "next": [
          "Interactiv_Nikolay_V_K"
        ]
      },

      {
        "id": "Pervoe_vpechatlenie_Ilsur_M",
        "deadNode": "",
        "next": [
          "Interactiv_Nikolay_V_K"
        ]
      },

      {
        "id": "Budushee_Ilsur_M",
        "deadNode": "",
        "next": [
          "Interactiv_Nikolay_V_K"
        ]
      },

      {
        "id": "Interactiv_Nikolay_V_K",
        "deadNode": "",
        "next": [
          "Znacomstvo_Nikolay_V",
          "Pervoe_vpechatlenie_Nikolay_V",
          "Budushee_Nikolay_V"
        ]
      },

      {
        "id": "Znacomstvo_Nikolay_V",
        "deadNode": "",
        "next": [
          "Interactiv_Pavel_A"
        ]
      },

      {
        "id": "Pervoe_vpechatlenie_Nikolay_V",
        "deadNode": "",
        "next": [
          "Interactiv_Pavel_A"
        ]
      },

      {
        "id": "Budushee_Nikolay_V",
        "deadNode": "",
        "next": [
          "Interactiv_Pavel_A"
        ]
      },

      {
        "id": "Interactiv_Pavel_A",
        "deadNode": "",
        "next": [
          "Znacomstvo_Pavel_A",
          "Smeshnaya_istoria_Pavel_A",
          "Secret_Pavel_A",
          "Pervoe_vpechatlenie_Pavel_A",
          "Budushee_Pavel_A"
        ]
      },

      {
        "id": "Znacomstvo_Pavel_A",
        "deadNode": "",
        "next": [
          "Interactiv_Maria_D"
        ]
      },

      {
        "id": "Smeshnaya_istoria_Pavel_A",
        "deadNode": "",
        "next": [
          "Interactiv_Maria_D"
        ]
      },

      {
        "id": "Secret_Pavel_A",
        "deadNode": "",
        "next": [
          "Interactiv_Maria_D"
        ]
      },

      {
        "id": "Pervoe_vpechatlenie_Pavel_A",
        "deadNode": "",
        "next": [
          "Interactiv_Maria_D"
        ]
      },

      {
        "id": "Budushee_Pavel_A",
        "deadNode": "",
        "next": [
          "Interactiv_Maria_D"
        ]
      },

      {
        "id": "Interactiv_Maria_D",
        "deadNode": "",
        "next": [
          "Znacomstvo_Maria_D",
          "Smeshnaya_istoria_Maria_D",
          "Budushee_Maria_D"
        ]
      },

      {
        "id": "Znacomstvo_Maria_D",
        "deadNode": "",
        "next": [
          "Interactiv_Madina_K"
        ]
      },

      {
        "id": "Smeshnaya_istoria_Maria_D",
        "deadNode": "",
        "next": [
          "Interactiv_Madina_K"
        ]
      },

      {
        "id": "Smeshnaya_istoria_Maria_D",
        "deadNode": "",
        "next": [
          "Budushee_Maria_D"
        ]
      },

      {
        "id": "Interactiv_Madina_K",
        "deadNode": "",
        "next": [
          "Znacomstvo_Madina_K",
          "Smeshnaya_istoria_Madina_K",
          "Secret_Madina_K",
          "Pervoe_vpechatlenie_Madina_K",
          "Budushee_Madina_K"
        ]
      },

      {
        "id": "Znacomstvo_Madina_K",
        "deadNode": "",
        "next": [
          "Interactiv_Igor_N"
        ]
      },

      {
        "id": "Smeshnaya_istoria_Madina_K",
        "deadNode": "",
        "next": [
          "Interactiv_Igor_N"
        ]
      },

      {
        "id": "Secret_Madina_K",
        "deadNode": "",
        "next": [
          "Interactiv_Igor_N"
        ]
      },

      {
        "id": "Pervoe_vpechatlenie_Madina_K",
        "deadNode": "",
        "next": [
          "Interactiv_Igor_N"
        ]
      },

      {
        "id": "Budushee_Madina_K",
        "deadNode": "",
        "next": [
          "Interactiv_Igor_N"
        ]
      },

      {
        "id": "Interactiv_Igor_N",
        "deadNode": "",
        "next": [
          "Znacomstvo_Igor_N",
          "Secret_Igor_N",
          "Budushee_Igor_N"
        ]
      },

      {
        "id": "Znacomstvo_Igor_N",
        "deadNode": "",
        "next": [
          "Interactiv_Elena_A"
        ]
      },

      {
        "id": "Secret_Igor_N",
        "deadNode": "",
        "next": [
          "Interactiv_Elena_A"
        ]
      },

      {
        "id": "Budushee_Igor_N",
        "deadNode": "",
        "next": [
          "Interactiv_Elena_A"
        ]
      },

      {
        "id": "Interactiv_Elena_A",
        "deadNode": "",
        "next": [
          "Znacomstvo_Elena_A",
          "Smeshnaya_istoria_Elena_A",
          "Secret_Elena_A",
          "Pervoe_vpechatlenie_Elena_A",
          "Budushee_Elena_A"
        ]
      },

      {
        "id": "Znacomstvo_Elena_A",
        "deadNode": "",
        "next": [
          "Interactiv_Radik_M"
        ]
      },

      {
        "id": "Smeshnaya_istoria_Elena_A",
        "deadNode": "",
        "next": [
          "Interactiv_Radik_M"
        ]
      },

      {
        "id": "Secret_Elena_A",
        "deadNode": "",
        "next": [
          "Interactiv_Radik_M"
        ]
      },

      {
        "id": "Pervoe_vpechatlenie_Elena_A",
        "deadNode": "",
        "next": [
          "Interactiv_Radik_M"
        ]
      },

      {
        "id": "Budushee_Elena_A",
        "deadNode": "",
        "next": [
          "Interactiv_Radik_M"
        ]
      },

      {
        "id": "Interactiv_Radik_M",
        "deadNode": "",
        "next": [
          "Znacomstvo_Radik_M",
          "Smeshnaya_istoria_Radik_M",
          "Pervoe_vpechatlenie_Radik_M",
          "Budushee_Radik_M"
        ]
      },

      {
        "id": "Znacomstvo_Radik_M",
        "deadNode": "",
        "next": [
          "Interactiv_Damir_F"
        ]
      },

      {
        "id": "Smeshnaya_istoria_Radik_M",
        "deadNode": "",
        "next": [
          "Interactiv_Damir_F"
        ]
      },

      {
        "id": "Pervoe_vpechatlenie_Radik_M",
        "deadNode": "",
        "next": [
          "Interactiv_Damir_F"
        ]
      },

      {
        "id": "Budushee_Radik_M",
        "deadNode": "",
        "next": [
          "Interactiv_Damir_F"
        ]
      },

      {
        "id": "Interactiv_Damir_F",
        "deadNode": "",
        "next": [
          "Znacomstvo_Damir_F",
          "Smeshnaya_istoria_Damir_F",
          "Secret_Damir_F",
          "Budushee_Damir_F"
        ]
      },

      {
        "id": "Znacomstvo_Damir_F",
        "deadNode": "",
        "next": [
          "Interactiv_Anna_K"
        ]
      },

      {
        "id": "Smeshnaya_istoria_Damir_F",
        "deadNode": "",
        "next": [
          "Interactiv_Anna_K"
        ]
      },

      {
        "id": "Secret_Damir_F",
        "deadNode": "",
        "next": [
          "Interactiv_Anna_K"
        ]
      },

      {
        "id": "Budushee_Damir_F",
        "deadNode": "",
        "next": [
          "Interactiv_Anna_K"
        ]
      },

      {
        "id": "Interactiv_Anna_K",
        "deadNode": "",
        "next": [
          "Znacomstvo_Anna_K",
          "Secret_Anna_K"
        ]
      },

      {
        "id": "Znacomstvo_Anna_K",
        "deadNode": "",
        "next": [
          "Interactiv_Alerksandr_M"
        ]
      },

      {
        "id": "Secret_Anna_K",
        "deadNode": "",
        "next": [
          "Interactiv_Alerksandr_M"
        ]
      },

      {
        "id": "Interactiv_Alerksandr_M",
        "deadNode": "",
        "next": [
          "Znacomstvo_Alerksandr_M",
          "Smeshnaya_istoria_Alerksandr_M",
          "Pervoe_vpechatlenie_Alerksandr_M",
          "Budushee_Alerksandr_M"
        ]
      },

      {
        "id": "Znacomstvo_Alerksandr_M",
        "deadNode": "",
        "next": [
          "Interactiv_Grigoriy_X"
        ]
      },

      {
        "id": "Smeshnaya_istoria_Alerksandr_M",
        "deadNode": "",
        "next": [
          "Interactiv_Grigoriy_X"
        ]
      },

      {
        "id": "Pervoe_vpechatlenie_Alerksandr_M",
        "deadNode": "",
        "next": [
          "Interactiv_Grigoriy_X"
        ]
      },

      {
        "id": "Budushee_Alerksandr_M",
        "deadNode": "",
        "next": [
          "Interactiv_Grigoriy_X"
        ]
      },

      {
        "id": "Interactiv_Grigoriy_X",
        "deadNode": "",
        "next": [
          "Znacomstvo_Grigoriy_X",
          "Smeshnaya_istoria_Grigoriy_X",
          "Secret_Grigoriy_X",
          "Pervoe_vpechatlenie_Grigoriy_X",
          "Budushee_Grigoriy_X"
        ]
      },



      {
        "id": "Znacomstvo_Grigoriy_X",
        "deadNode": "",
        "next": [
          "Interactiv_Fanis_Aleksandr"
        ]
      },

      {
        "id": "Smeshnaya_istoria_Grigoriy_X",
        "deadNode": "",
        "next": [
          "Interactiv_Fanis_Aleksandr"
        ]
      },

      {
        "id": "Secret_Grigoriy_X",
        "deadNode": "",
        "next": [
          "Interactiv_Fanis_Aleksandr"
        ]
      },

      {
        "id": "Pervoe_vpechatlenie_Grigoriy_X",
        "deadNode": "",
        "next": [
          "Interactiv_Fanis_Aleksandr"
        ]
      },

      {
        "id": "Budushee_Grigoriy_X",
        "deadNode": "",
        "next": [
          "Interactiv_Fanis_Aleksandr"
        ]
      },

      {
        "id": "Interactiv_Fanis_Aleksandr",
        "deadNode": "",
        "next": [
          "Znacomstvo_Fanis_Aleksandr",
          "Smeshnaya_istoria_Fanis_Aleksandr",
          "Secret_Fanis_Aleksandr",
          "Pervoe_vpechatlenie_Fanis_Aleksandr",
          "Budushee_Fanis_Aleksandr"
        ]
      },

      {
        "id": "Znacomstvo_Fanis_Aleksandr",
        "deadNode": "",
        "next": [
          "Final_Fanis_Aleksandr"
        ]
      },

      {
        "id": "Smeshnaya_istoria_Fanis_Aleksandr",
        "deadNode": "",
        "next": [
          "Final_Fanis_Aleksandr"
        ]
      },

      {
        "id": "Secret_Fanis_Aleksandr",
        "deadNode": "",
        "next": [
          "Final_Fanis_Aleksandr"
        ]
      },

      {
        "id": "Pervoe_vpechatlenie_Fanis_Aleksandr",
        "deadNode": "",
        "next": [
          "Final_Fanis_Aleksandr"
        ]
      },

      {
        "id": "Budushee_Fanis_Aleksandr",
        "deadNode": "",
        "next": [
          "Final_Fanis_Aleksandr"
        ]
      },

      {
        "id": "Final_Fanis_Aleksandr",
        "deadNode": "",
        "next": []
      }

    ],
    "events": [

      {
        "chapter": "Interactiv_Ilsur_M",
        "time": 1.0,
        "type": "Choice",
        "isTutorial": false,
        "isInstant": true,
        "isSoftInstant": true,
        "isEnabledTimerInTutorial": false,
        "isDead": false,
        "id": 0,
        "penalty": 0,
        "timeout": 9.5,
        "data-mobile": {
          "question": "",
          "variants": [
            "Как познакомились",
            "Смешная история",
            "Секрет",
            "Первое впечатление",
            "Будущее"
          ]
        }
      },
      {
        "chapter": "Interactiv_Nikolay_V_K",
        "time": 1.0,
        "type": "Choice",
        "isTutorial": false,
        "isInstant": true,
        "isSoftInstant": true,
        "isEnabledTimerInTutorial": false,
        "isDead": false,
        "id": 0,
        "penalty": 0,
        "timeout": 9.5,
        "data-mobile": {
          "question": "",
          "variants": [
            "Как познакомились",
            "Первое впечатление",
            "Будущее"
          ]
        }
      },

      {
        "chapter": "Interactiv_Pavel_A",
        "time": 1.0,
        "type": "Choice",
        "isTutorial": false,
        "isInstant": true,
        "isSoftInstant": true,
        "isEnabledTimerInTutorial": false,
        "isDead": false,
        "id": 1,
        "penalty": 0,
        "timeout": 9.5,
        "data-mobile": {
          "question": "",
          "variants": [
            "Как познакомились",
            "Смешная история",
            "Секрет",
            "Первое впечатление",
            "Будущее"
          ]
        }
      },

      {
        "chapter": "Interactiv_Maria_D",
        "time": 1.0,
        "type": "Choice",
        "isTutorial": false,
        "isInstant": true,
        "isSoftInstant": true,
        "isEnabledTimerInTutorial": false,
        "isDead": false,
        "id": 2,
        "penalty": 0,
        "timeout": 9.5,
        "data-mobile": {
          "question": "",
          "variants": [
            "Как познакомились",
            "Смешная история",
            "Будущее"
          ]
        }
      },

      {
        "chapter": "Interactiv_Madina_K",
        "time": 1.0,
        "type": "Choice",
        "isTutorial": false,
        "isInstant": true,
        "isSoftInstant": true,
        "isEnabledTimerInTutorial": false,
        "isDead": false,
        "id": 3,
        "penalty": 0,
        "timeout": 9.5,
        "data-mobile": {
          "question": "",
          "variants": [
            "Как познакомились",
            "Смешная история",
            "Секрет",
            "Первое впечатление",
            "Будущее"
          ]
        }
      },


      {
        "chapter": "Interactiv_Igor_N",
        "time": 1.0,
        "type": "Choice",
        "isTutorial": false,
        "isInstant": true,
        "isSoftInstant": true,
        "isEnabledTimerInTutorial": false,
        "isDead": false,
        "id": 4,
        "penalty": 0,
        "timeout": 9.5,
        "data-mobile": {
          "question": "",
          "variants": [
            "Как познакомились",
            "Секрет",
            "Будущее"
          ]
        }
      },

      {
        "chapter": "Interactiv_Elena_A",
        "time": 1.0,
        "type": "Choice",
        "isTutorial": false,
        "isInstant": true,
        "isSoftInstant": true,
        "isEnabledTimerInTutorial": false,
        "isDead": false,
        "id": 5,
        "penalty": 0,
        "timeout": 9.5,
        "data-mobile": {
          "question": "",
          "variants": [
            "Как познакомились",
            "Смешная история",
            "Секрет",
            "Первое впечатление",
            "Будущее"
          ]
        }
      },

      {
        "chapter": "Interactiv_Radik_M",
        "time": 1.0,
        "type": "Choice",
        "isTutorial": false,
        "isInstant": true,
        "isSoftInstant": true,
        "isEnabledTimerInTutorial": false,
        "isDead": false,
        "id": 6,
        "penalty": 0,
        "timeout": 9.5,
        "data-mobile": {
          "question": "",
          "variants": [
            "Как познакомились",
            "Смешная история",
            "Первое впечатление",
            "Будущее"
          ]
        }
      },



      {
        "chapter": "Interactiv_Damir_F",
        "time": 1.0,
        "type": "Choice",
        "isTutorial": false,
        "isInstant": true,
        "isSoftInstant": true,
        "isEnabledTimerInTutorial": false,
        "isDead": false,
        "id": 7,
        "penalty": 0,
        "timeout": 9.5,
        "data-mobile": {
          "question": "",
          "variants": [
            "Как познакомились",
            "Смешная история",
            "Секрет",
            "Будущее"
          ]
        }
      },

      {
        "chapter": "Interactiv_Anna_K",
        "time": 1.0,
        "type": "Choice",
        "isTutorial": false,
        "isInstant": true,
        "isSoftInstant": true,
        "isEnabledTimerInTutorial": false,
        "isDead": false,
        "id": 8,
        "penalty": 0,
        "timeout": 9.5,
        "data-mobile": {
          "question": "",
          "variants": [
            "Как познакомились",
            "Секрет"
          ]
        }
      },



      {
        "chapter": "Interactiv_Alerksandr_M",
        "time": 1.0,
        "type": "Choice",
        "isTutorial": false,
        "isInstant": true,
        "isSoftInstant": true,
        "isEnabledTimerInTutorial": false,
        "isDead": false,
        "id": 9,
        "penalty": 0,
        "timeout": 9.5,
        "data-mobile": {
          "question": "",
          "variants": [
            "Как познакомились",
            "Смешная история",
            "Первое впечатление",
            "Будущее"
          ]
        }
      },


      {
        "chapter": "Interactiv_Grigoriy_X",
        "time": 1.0,
        "type": "Choice",
        "isTutorial": false,
        "isInstant": true,
        "isSoftInstant": true,
        "isEnabledTimerInTutorial": false,
        "isDead": false,
        "id": 10,
        "penalty": 0,
        "timeout": 9.5,
        "data-mobile": {
          "question": "",
          "variants": [
            "Как познакомились",
            "Смешная история",
            "Секрет",
            "Первое впечатление",
            "Будущее"
          ]
        }
      },


      {
        "chapter": "Interactiv_Fanis_Aleksandr",
        "time": 1.0,
        "type": "Choice",
        "isTutorial": false,
        "isInstant": true,
        "isSoftInstant": true,
        "isEnabledTimerInTutorial": false,
        "isDead": false,
        "id": 11,
        "penalty": 0,
        "timeout": 9.5,
        "data-mobile": {
          "question": "",
          "variants": [
            "Как познакомились",
            "Смешная история",
            "Секрет",
            "Первое впечатление",
            "Будущее"
          ]
        }
      }


    ],
    "save-points": [
      {
        "chapter": "Interactiv_Nikolay_V_K",
        "time": 0
      },
      {
        "chapter": "Interactiv_Pavel_A",
        "time": 0
      },
      {
        "chapter": "Interactiv_Alerksandr_M",
        "time": 0
      },
      {
        "chapter": "Interactiv_Anna_K",
        "time": 0
      },
      {
        "chapter": "Interactiv_Damir_F",
        "time": 0
      },
      {
        "chapter": "Interactiv_Elena_A",
        "time": 0
      },
      {
        "chapter": "Interactiv_Fanis_Aleksandr",
        "time": 0
      },
      {
        "chapter": "Interactiv_Grigoriy_X",
        "time": 0
      },
      {
        "chapter": "Interactiv_Igor_N",
        "time": 0
      },
      {
        "chapter": "Interactiv_Madina_K",
        "time": 0
      },
      {
        "chapter": "Interactiv_Maria_D",
        "time": 0
      },
      {
        "chapter": "Interactiv_Radik_M",
        "time": 0
      }
    ],
    "characters": [],
    "objects": [],
    "avatars": [],
    "assets": [],
    "achievements": []
  }
}
